{
  "classname": null,
  "name": null,
  "animation": {
    "classname": null,
    "name": "AnimationManager",
    "actionlist": []
  },
  "dataScale": 1,
  "designHeight": 720,
  "designWidth": 1280,
  "textures": [],
  "texturesPng": [],
  "version": "1.5.0.0",
  "widgetTree": {
    "classname": "Panel",
    "name": null,
    "children": [
      {
        "classname": "ImageView",
        "name": null,
        "children": [],
        "options": {
          "__type": "ImageViewSurrogate:#EditorCommon.JsonModel.Component.GUI",
          "classname": "ImageView",
          "name": "Background",
          "ZOrder": 0,
          "actiontag": 19359577,
          "anchorPointX": 0.5,
          "anchorPointY": 0.5,
          "classType": "CocoStudio.EngineAdapterWrap.CSImageView",
          "colorB": 255,
          "colorG": 255,
          "colorR": 255,
          "customProperty": "",
          "flipX": false,
          "flipY": false,
          "height": 720,
          "ignoreSize": true,
          "layoutParameter": null,
          "opacity": 255,
          "positionPercentX": 0.5,
          "positionPercentY": 0.5,
          "positionType": 0,
          "rotation": 0,
          "scaleX": 1,
          "scaleY": 1,
          "sizePercentX": 1,
          "sizePercentY": 1,
          "sizeType": 0,
          "tag": 33,
          "touchAble": false,
          "useMergedTexture": false,
          "visible": true,
          "width": 1280,
          "x": 640,
          "y": 360,
          "capInsetsHeight": 1,
          "capInsetsWidth": 1,
          "capInsetsX": 0,
          "capInsetsY": 0,
          "fileName": null,
          "fileNameData": {
            "path": "Background.png",
            "plistFile": "",
            "resourceType": 0
          },
          "scale9Enable": false,
          "scale9Height": 720,
          "scale9Width": 1280
        }
      },
      {
        "classname": "TextField",
        "name": null,
        "children": [],
        "options": {
          "__type": "TextFieldSurrogate:#EditorCommon.JsonModel.Component.GUI",
          "classname": "TextField",
          "name": "TxtTournament",
          "ZOrder": 0,
          "actiontag": 44479271,
          "anchorPointX": 0.5,
          "anchorPointY": 0.5,
          "classType": "CocoStudio.EngineAdapterWrap.CSTextField",
          "colorB": 255,
          "colorG": 255,
          "colorR": 255,
          "customProperty": "",
          "flipX": false,
          "flipY": false,
          "height": 57,
          "ignoreSize": true,
          "layoutParameter": null,
          "opacity": 255,
          "positionPercentX": 0.478125,
          "positionPercentY": 0.934722245,
          "positionType": 0,
          "rotation": 0,
          "scaleX": 1,
          "scaleY": 1,
          "sizePercentX": 0.3140625,
          "sizePercentY": 0.0791666657,
          "sizeType": 0,
          "tag": 401,
          "touchAble": false,
          "useMergedTexture": false,
          "visible": true,
          "width": 402,
          "x": 612,
          "y": 673,
          "areaHeight": 0,
          "areaWidth": 0,
          "fontFile": null,
          "fontName": "",
          "fontSize": 50,
          "maxLength": 10,
          "maxLengthEnable": false,
          "passwordEnable": false,
          "passwordStyleText": "*",
          "placeHolder": "input words here",
          "text": "Tournament name"
        }
      },
      {
        "classname": "ScrollView",
        "name": null,
        "children": [],
        "options": {
          "__type": "ScrollViewSurrogate:#EditorCommon.JsonModel.Component.GUI",
          "classname": "ScrollView",
          "name": "TournamentView",
          "ZOrder": 0,
          "actiontag": 12854442,
          "anchorPointX": 0,
          "anchorPointY": 0,
          "classType": "CocoStudio.EngineAdapterWrap.CSScrollView",
          "colorB": 255,
          "colorG": 255,
          "colorR": 255,
          "customProperty": "",
          "flipX": false,
          "flipY": false,
          "height": 200,
          "ignoreSize": false,
          "layoutParameter": null,
          "opacity": 255,
          "positionPercentX": 0.0171875,
          "positionPercentY": 0.0305555556,
          "positionType": 0,
          "rotation": 0,
          "scaleX": 4.88452625,
          "scaleY": 2.82976174,
          "sizePercentX": 0.15625,
          "sizePercentY": 0.2777778,
          "sizeType": 0,
          "tag": 724,
          "touchAble": true,
          "useMergedTexture": false,
          "visible": true,
          "width": 200,
          "x": 22,
          "y": 22,
          "backGroundImage": null,
          "backGroundImageData": null,
          "backGroundScale9Enable": false,
          "bgColorB": 71,
          "bgColorG": 71,
          "bgColorOpacity": 100,
          "bgColorR": 71,
          "bgEndColorB": 100,
          "bgEndColorG": 150,
          "bgEndColorR": 255,
          "bgStartColorB": 255,
          "bgStartColorG": 255,
          "bgStartColorR": 255,
          "bounceEnable": false,
          "capInsetsHeight": 1,
          "capInsetsWidth": 1,
          "capInsetsX": 0,
          "capInsetsY": 0,
          "clipAble": true,
          "colorType": 1,
          "direction": 2,
          "editorClipAble": false,
          "innerHeight": 200,
          "innerWidth": 200,
          "layoutType": 0,
          "vectorX": 0,
          "vectorY": -0.5
        }
      },
      {
        "classname": "Slider",
        "name": null,
        "children": [],
        "options": {
          "__type": "SliderSurrogate:#EditorCommon.JsonModel.Component.GUI",
          "classname": "Slider",
          "name": "SliderTournament",
          "ZOrder": 0,
          "actiontag": 65091276,
          "anchorPointX": 0.5,
          "anchorPointY": 0.5,
          "classType": "CocoStudio.EngineAdapterWrap.CSSlider",
          "colorB": 255,
          "colorG": 255,
          "colorR": 255,
          "customProperty": "",
          "flipX": false,
          "flipY": false,
          "height": 11,
          "ignoreSize": true,
          "layoutParameter": null,
          "opacity": 255,
          "positionPercentX": 0.3875,
          "positionPercentY": 0.0166666675,
          "positionType": 0,
          "rotation": 0,
          "scaleX": 1,
          "scaleY": 1,
          "sizePercentX": 0.664843738,
          "sizePercentY": 0.0152777778,
          "sizeType": 0,
          "tag": 725,
          "touchAble": true,
          "useMergedTexture": false,
          "visible": true,
          "width": 851,
          "x": 496,
          "y": 12,
          "ballDisabled": null,
          "ballDisabledData": {
            "path": null,
            "plistFile": null,
            "resourceType": 0
          },
          "ballNormal": null,
          "ballNormalData": {
            "path": "ScrollButton.png",
            "plistFile": "",
            "resourceType": 0
          },
          "ballPressed": null,
          "ballPressedData": {
            "path": null,
            "plistFile": null,
            "resourceType": 0
          },
          "barCapInsetsHeight": 1,
          "barCapInsetsWidth": 1,
          "barCapInsetsX": 0,
          "barCapInsetsY": 0,
          "barFileName": null,
          "barFileNameData": {
            "path": "ScrollBar_0.png",
            "plistFile": "",
            "resourceType": 0
          },
          "capInsetsHeight": 1,
          "capInsetsWidth": 1,
          "capInsetsX": 0,
          "capInsetsY": 0,
          "length": 851,
          "percent": 0,
          "progressBarCapInsetsHeight": 0,
          "progressBarCapInsetsWidth": 0,
          "progressBarCapInsetsX": 0,
          "progressBarCapInsetsY": 0,
          "progressBarData": {
            "path": null,
            "plistFile": null,
            "resourceType": 0
          },
          "progressBarVisible": false,
          "scale9Enable": false,
          "scale9Height": 0,
          "scale9Width": 0,
          "slidBallAnchorPointX": 0,
          "slidBallAnchorPointY": 0
        }
      }
    ],
    "options": {
      "__type": "PanelSurrogate:#EditorCommon.JsonModel.Component.GUI",
      "classname": "Panel",
      "name": "Panel_16",
      "ZOrder": 0,
      "actiontag": -1,
      "anchorPointX": 0,
      "anchorPointY": 0,
      "classType": "CocoStudio.EngineAdapterWrap.CSPanel",
      "colorB": 255,
      "colorG": 255,
      "colorR": 255,
      "customProperty": "",
      "flipX": false,
      "flipY": false,
      "height": 720,
      "ignoreSize": false,
      "layoutParameter": null,
      "opacity": 255,
      "positionPercentX": 0,
      "positionPercentY": 0,
      "positionType": 0,
      "rotation": 0,
      "scaleX": 1,
      "scaleY": 1,
      "sizePercentX": 1,
      "sizePercentY": 1,
      "sizeType": 0,
      "tag": 32,
      "touchAble": true,
      "useMergedTexture": false,
      "visible": true,
      "width": 1280,
      "x": 0,
      "y": 0,
      "adaptScreen": false,
      "backGroundImage": null,
      "backGroundImageData": null,
      "backGroundScale9Enable": false,
      "bgColorB": 255,
      "bgColorG": 200,
      "bgColorOpacity": 0,
      "bgColorR": 150,
      "bgEndColorB": 255,
      "bgEndColorG": 200,
      "bgEndColorR": 150,
      "bgStartColorB": 255,
      "bgStartColorG": 255,
      "bgStartColorR": 255,
      "capInsetsHeight": 1,
      "capInsetsWidth": 1,
      "capInsetsX": 0,
      "capInsetsY": 0,
      "clipAble": false,
      "colorType": 1,
      "layoutType": 0,
      "vectorX": 0,
      "vectorY": -0.5
    }
  }
}