﻿Gender,GivenName,Surname
male,Wei,Hsu
male,Kuan-Yin,Peng
male,Kang,Huang
male,Ning,Liao
male,Yuan,Tai
male,Chen,Tien
female,Tao,She
male,Dong,Yin
male,Chen,She
male,Sheng,Chung
female,Yue You,Tsai
male,Yong,Chiang
male,Shi,Wang
male,Hu,Ni
male,Zhen,Hsueh
male,Zhen,Hsu
male,Wen,Ch'en
male,Liang,Ch'eng
male,Kang,T'ang
male,Jie,Hou
male,Gang,Hsü
male,Lee,Lung
male,Park,She
male,Guang,Lo
female,Chan Juan,Fang
male,Lei,Ni
male,Sheng,Chung
female,Qing Yuan,Tai
male,Yi,Chin
male,Chen,Kao
male,Kang,Mao
male,Wu,Yuan
male,Wei,Lung
male,Lei,Kuo
male,Long,Chien
male,Kang,Ts'ao
male,Kang,Chen
male,Zhen,Tang
male,Liang,Fan
male,Dong,Chia
male,Meng,Yüan
male,Kuan-Yin,Niu
male,Bo,Yeh
male,Jian,Kuo
male,Meng,Tung
male,Yi,Hê
male,Dewei,Tsui
male,Meng,Feng
male,Sheng,Yuan
male,Sheng,Huang
male,Yi,He
male,Wen,Su
male,Hsin,P'eng
male,Jian,Mao
male,Lok,Han
male,An,Tan
female,Lili,Ch'ien
male,You,Yao
male,Wu,Cheng
male,Yuan,Hao
male,Qiang,Lei
male,Park,Tu
male,Wei,Su
male,Lok,Pai
male,Ning,Pai
male,Manchu,Yu
male,Guo,T'ao
male,De,Tu
male,Wei,P'eng
male,Chung,Su
male,Bo,P'an
male,Yi,Yeh
male,Ning,Shen
male,Zhen,Ch'in
male,Manchu,Feng
male,Chi,Niu
male,Jie,Fang
male,Xiong,Meng
female,Jia Li,Hou
male,Yul,Chuang
male,Wu,Lü
male,Dewei,Ch'ang
female,Yue Wan,Chiu
male,Yuan,Feng
male,Qiang,Kuo
male,Sun,Tsao
male,Fai,Hsu
male,Chan,T'ien
male,Jie,Yin
male,Shi,Yüan
male,Yi,Hsiao
male,Wu,Wan
male,Dewei,Shen
male,Qiang,Ts'ao
male,Manchu,Su
male,Ye,Su
male,Dewei,T'ien
male,Wu,P'eng
male,De,Chu
male,Yuan,P'an
male,Chi,Lei
male,Chan,Chou
male,Tain,Ch'in
male,Lee,Ma
male,Guang,Kuo
male,Kang,T'ang
male,Jie,Yin
male,On,Kung
male,Shen,Ku
male,Cheng,Tseng
male,Kong,Tung
male,Lei,Yü
male,Xiong,Tsou
male,Shaiming,Ts'ai
male,Park,Mai
male,Jun,Shen
male,Kong,Hu
male,Lian,Cheng
male,Gang,K'ung
male,Zhen,Tseng
male,Zhen,Kuo
male,Tao,Mai
male,Yuan,Shih
male,Tao,Yeh
male,Dewei,Ch'en
male,Chi,She
male,Kuan-Yin,Hsia
male,Tao,Hsu
male,Dong,Kung
male,Ning,Su
male,Chung,Tsou
male,Zhen,P'an
male,Wen,He
male,Hui,Hsiao
male,Lok,Ku
male,Lei,Tan
male,Lei,Tuan
male,Peng,Han
male,Sying,Ch'ang
male,Sheng,Chien
male,Gang,Tsui
male,Feng,Yeh
male,Wei,Kang
male,Meng,Shao
male,Cheng,Lai
male,Kang,Kuo
female,Ling,Tao
male,Qiang,Liao
male,Sying,Shih
male,Bo,He
male,De,Hsia
male,Park,Niu
male,Chan,Kê
male,Cai,Chiu
male,Shaiming,Lü
male,Ho,Meng
male,Zhen,Tsai
male,Tain,Tao
male,Guang,Tang
male,Hu,Hsüeh
female,Guan-yin,Lü
male,Sying,Sun
male,Long,Hsing
male,Li,Liu
male,Zhen,Yeh
male,Jian,Hsia
female,Yue Ying,Hsing
male,De,Yu
male,You,Hsueh
male,Xiong,Shen
male,Lee,Tsao
female,Qi,Lu
male,Cai,Yeh
male,Fai,K'ung
male,Yi,Niu
male,Feng,Lu
male,Long,Su
male,Chan,Ch'ang
male,Xiong,Kung
male,Feng,Sun
male,Yuan,Tsui
male,Lian,Liang
male,Wang,Hsu
male,Hu,Shih
male,On,Ho
male,Shaiming,Yen
male,Lee,Kao
male,Sying,Kê
male,Dewei,Fan
male,You,Feng
male,Wu,Su
male,Cong,Lü
male,Hsin,Li
male,Tain,Yuan
male,Sying,Lei
male,Manchu,Chiang
male,Guo,Chia
female,Yue Yan,Sun
male,Lok,Hsueh
male,Guang,Kung
male,Guo,Hê
female,Chan,Ch'ang
male,Kuan-Yin,Kang
male,Dewei,Hu
male,Lee,Yeh
male,Ho,Lei
male,Li,Ma
male,Jun,Chao
male,Peng,Chao
male,Meng,Ts'ao
male,Hsin,Yü
male,Li,Chu
male,Song,He
male,Chung,Lü
male,Song,Fu
male,On,Jen
male,Tain,Tsui
male,Hui,Ni
male,Dewei,Su
male,Dong,Chung
male,Chi,Mai
male,Cong,Fu
male,Feng,Jen
male,Yong,Tuan
male,Li,Hung
male,Song,Yü
male,Sun,Feng
male,Guang,Lo
male,Chan,Wu
female,Yan,Tuan
male,Lok,Ts'ui
male,Ning,Ni
male,Sying,Lo
male,Ye,Hsueh
male,Jun,Fu
male,Kuan-Yin,Fan
male,Wei,Lei
male,De,Ch'in
male,Tao,Tien
male,Long,Ch'eng
male,On,Ma
male,Guang,She
male,Jin,Hung
male,Hui,P'eng
male,Xiong,T'ien
male,Kang,T'ao
male,Tain,Mao
female,Mingmei,Chiu
female,Qiong,Ch'ien
male,Ye,Ts'ao
male,Chung,Ch'iu
male,Dewei,Tsui
female,Cui,Yeh
male,Wang,Ho
male,Cheng,Fan
male,Guo,Hê
male,Wen,Hu
male,Long,Tsou
male,Hui,Wei
male,Hui,Mao
male,Kuan-Yin,Tsou
male,Hsin,P'an
female,Zhu,Wan
male,Liang,Hsu
male,Shing,Chiu
male,Lok,Niu
male,Tain,Yang
male,Hsin,Li
male,Ye,Ko
male,Gang,Chien
male,Chan,Shih
male,De,Tien
male,On,Kung
male,Meng,Ni
male,Qiang,Hu
male,Ming,Ts'ui
male,Lei,Han
male,Bo,Tuan
male,Hsin,Chu
male,Feng,Yüan
male,Shaiming,Shao
female,Na,Chang
male,Bao,Peng
male,Sun,Feng
male,Kong,Ch'ien
male,Ye,Kê
female,Dai,Chang
male,Chan,Ch'eng
male,Yi,Meng
male,Chen,Chung
female,Zhen Juan,Chen
male,Chung,Tu
female,Jiang Li,Hsiung
male,Jin,Ting
male,Jun,Ch'in
male,Yul,Yin
male,Hui,P'eng
male,Shen,Hsia
male,Lian,Yang
male,Lee,Peng
male,Hsin,Tseng
female,Jin,Chen
female,Xiu Juan,Hsueh
male,Chung,Ting
male,Park,Han
male,Kuan-Yin,Yüan
male,Hu,Kao
female,Lixue,Tan
male,Ning,Tao
male,Cheng,Wang
female,Ai,Huang
male,Sheng,Ku
male,Jie,Lung
male,Gang,Mai
male,Li,T'an
female,Yun,Hsieh
male,Kong,Ch'ien
female,Jia Li,Hsing
male,Li,Tsao
male,Lee,Lung
female,Zhen,T'ao
male,Park,Hsüeh
male,Hsin,Shih
male,Gang,Shen
male,Meng,Ch'ien
male,Cong,Yüan
male,Jie,He
male,Ho,Kuo
male,Lok,Kao
male,Wei,Kao
male,Long,Ch'eng
male,Chen,Chuang
male,Wang,Tan
male,Chen,Han
male,Jun,Chiu
male,Cong,Lung
male,Wen,Chien
male,Chung,Hsü
male,Lian,Tuan
male,Feng,Chin
male,Li,Tsou
male,Kong,Sun
male,On,Pai
male,Cai,Tang
male,Li,Ku
male,Yong,Kê
male,Bao,Tao
male,Peng,Liao
male,You,Sun
male,Jian,Fu
male,Feng,Fan
female,Xian,Chung
male,Chung,Lung
male,Wu,Chiang
male,Kuan-Yin,Kung
male,Yuan,Yang
male,Ning,Hao
male,Lei,Sun
male,Jian,Ch'in
male,Sheng,T'ien
male,Gang,Ting
male,Liang,Tsui
male,Guang,Ch'in
female,Jing,Mao
male,Shi,T'an
male,Dong,Yu
male,Fai,Ch'iu
male,Liang,Niu
male,Shing,Tao
male,Liang,Chu
male,Lee,Feng
male,Wei,Hsiao
male,Bao,Shao
male,On,Shen
male,Park,Chang
male,Manchu,Tan
male,Feng,Yen
male,Bo,Ch'en
male,Bo,Yuan
female,Zhen Juan,Tuan
male,Chung,She
male,Li,Huang
male,Park,Jen
male,Cai,Pan
male,Wang,Kao
male,Shen,Meng
male,Wei,Sun
male,Jin,Yuan
male,Gang,Tuan
female,Xue,Ni
male,Wei,Ho
male,Yi,Hsü
male,Ning,Hsiao
male,Sheng,He
female,Feng,Kao
male,Lok,Feng
male,Wu,Yu
male,Yi,Huang
male,Qiang,Kê
male,Lee,Kang
male,Meng,Ch'en
male,Gang,Yu
male,Jun,Feng
male,Peng,Hsueh
female,Zhen,Yüan
male,Dewei,Hao
male,Song,Tsai
male,Cai,Mao
male,Shen,Su
male,Ning,Hsü
male,Lei,Kung
male,Hui,Hou
female,Shu Fang,Tang
male,Peng,Chien
male,Tao,Kao
male,De,Mao
female,Qing Yuan,Wu
male,Xiong,Kê
male,Shing,Tsao
male,Hsin,Tsou
male,Guang,Meng
male,Wen,Niu
male,Sun,Lin
male,Jian,Ting
male,Xiong,Wan
male,Qiang,Tsao
male,Lok,Ni
female,Yan Yan,Hsiung
female,Shan,Ting
male,Lee,Hsiung
male,Jun,Hsieh
female,Yi Ze,Mai
male,Peng,Tuan
male,Kong,Tang
male,Manchu,Sung
male,Kong,T'an
male,Bao,Hsiung
male,Chi,Ma
male,Jun,Fan
male,Wang,Tsou
male,Hu,Ts'ao
male,Ming,P'eng
male,Jian,P'an
male,Ye,Ch'eng
male,Guo,Ts'ui
male,Hsin,Fan
male,Yul,Hao
male,Kong,Yin
male,Lei,Shen
male,Kang,Tseng
male,Li,Tu
male,Jin,Tan
male,Sying,Ch'ien
male,Ye,Peng
male,Shaiming,Lin
male,Hu,Kê
male,Yul,Hsing
male,Lee,Yu
male,Liang,Hao
male,Yi,T'an
male,Bo,Tien
male,Jun,Wan
male,Chi,Ting
male,Shen,Yu
male,Lei,Han
male,Lei,Tsai
female,Bo,Tan
male,Manchu,Chao
male,Cheng,Tang
male,Sying,Hung
female,Xiao Chen,Fan
male,Sying,Chang
male,Kuan-Yin,Meng
male,Bo,Cheng
male,Yul,Yen
male,Chan,Ts'ai
male,Li,Chu
male,Ye,Hu
male,Bo,Chou
male,Yul,Chien
male,Cheng,Hsia
female,Dan,Chiu
male,Cai,Kung
male,Sun,Sun
female,Hui Ying,Yao
male,Kang,Hsia
male,Yuan,Hou
male,Zhen,Shih
male,Ho,Pai
male,Lee,Tsui
male,Qiang,Shao
male,Ye,Tseng
male,Cheng,Ko
male,Yuan,Lai
male,Li,Tseng
male,Dong,Lai
male,Jie,Ni
male,Peng,Tsao
male,Ho,Ts'ai
male,Chi,Wang
male,Feng,Ch'en
male,Sying,Teng
male,Xiong,Ku
male,Bao,Wei
male,Sun,P'eng
male,Tao,Ch'en
male,Li,Liao
male,Song,Ch'ien
male,Lian,Yang
male,Song,Lei
male,Shen,Hsueh
male,Sying,Liang
male,Ning,Tsui
male,Hu,Yin
male,Kuan-Yin,Jen
male,Ming,Chin
male,Jun,Hsia
female,Rong,P'eng
male,Chung,Liu
male,Lian,Hsüeh
male,Lok,P'an
male,Guang,Tsui
female,Qiong,Su
male,Long,Hsüeh
male,Ming,Shen
male,Wu,Ni
male,On,Mai
female,Lin Yao,K'ung
male,Kuan-Yin,Kung
male,Kuan-Yin,Meng
male,Ning,Shao
male,Feng,Hsüeh
male,Qiang,Peng
male,Kuan-Yin,Hsüeh
male,Meng,Kang
male,Cheng,Yu
male,Song,T'an
male,Bo,Ting
male,Chung,Shao
male,Kuan-Yin,Hu
male,Hui,Ch'in
male,Jin,Chin
male,Jie,Ts'ui
male,Xiong,Ch'iu
male,Meng,Hsiung
male,Chi,Tsou
male,Xiong,Chien
female,Yan,She
male,Kang,Cheng
male,Sheng,Kang
male,Park,Shao
male,Dong,Mai
male,Li,Kang
male,Chung,Shao
male,Manchu,Tsou
male,Chi,Pai
male,Kong,Ku
male,Kuan-Yin,She
male,Tain,Niu
male,Jun,Kung
male,Ho,Kang
male,Dewei,Chiu
male,Yuan,Yang
male,Bao,Wang
male,Cong,Shao
female,Li Hua,Hao
male,Shen,He
male,Yuan,Chao
male,Ye,Meng
male,Jin,Yu
female,Li Ming,Liao
female,Xiao Hong,Peng
male,Cheng,Kang
male,Chi,Chou
male,Lian,Hsueh
male,Yi,Ts'ao
male,Dong,Yeh
male,Wu,Tai
male,Tain,Lo
male,Lok,Chang
male,Shen,Fu
male,Long,Tsui
female,Lian,Kang
male,Ye,Ts'ai
male,Chen,Ku
male,Wang,Han
male,Park,Ch'iu
male,Sheng,Yang
male,Meng,Cheng
male,Peng,Chen
male,Yul,Shao
male,Cong,Ch'eng
female,Dai,Lei
male,Shi,Kung
male,Cong,Kung
male,Shaiming,Kuo
male,Chan,Fang
male,Shi,Yu
male,Chung,Yüan
male,Hu,Liang
male,Hsin,Lu
male,Cheng,Yüan
male,Peng,Hsing
male,Wen,Chou
male,Zhen,Chen
male,Chan,Hsü
male,Yi,Huang
male,Cai,K'ung
male,Chung,Yeh
male,Song,Cheng
male,On,T'ao
male,Yi,Liao
male,You,Teng
male,Hu,Han
male,Cai,P'an
male,Guo,Chuang
male,Yul,Chiang
male,Ning,Ni
male,Ming,Fu
male,Meng,Niu
male,Sun,Fang
male,Manchu,Chiang
male,Dong,Chiang
male,Guo,Chao
male,Dewei,Chuang
male,Chan,Kang
male,Dong,Chang
male,Bo,Hsiung
male,Guang,Ch'eng
male,Cong,Jen
male,An,Ting
male,Yuan,Ts'ao
male,Guo,She
male,Manchu,Hsieh
male,Shen,Tao
male,Manchu,T'ao
male,Hsin,Ho
male,Kuan-Yin,Chia
female,Yan Yan,T'an
male,De,Tsai
male,Jin,T'ang
male,Ning,Hsueh
male,Fai,Tseng
male,Chan,Ku
male,Lok,He
male,Tain,Kung
male,Bao,Lung
male,Cong,Cheng
male,Zhen,Kê
male,Sying,Feng
male,Tain,Ch'iu
male,Cong,Chang
male,Cai,Ch'ien
male,On,Kao
male,Dewei,Tu
male,Lee,Tsao
male,Qiang,Tu
male,Hsin,Feng
male,Lok,P'an
male,Qiang,Tsao
female,Qiong,Tuan
female,Li,Sung
male,Cheng,K'ung
male,Fai,Tseng
male,Cheng,Hsu
male,Xiong,Yuan
male,Ho,Hsiao
male,Lee,Kê
male,De,Tang
male,Chi,Chin
male,Xiong,Ts'ui
male,Shing,Hsüeh
male,On,Hsueh
male,Ho,Ts'ao
male,De,Tsui
male,Manchu,Hsiung
male,Kang,Ting
male,Lee,Pan
male,Hsin,Hao
male,Dewei,Tsou
male,Yul,Kung
male,Ning,Tuan
male,Lee,Peng
male,Yuan,Hung
male,Sying,Hung
female,Jia Li,Tu
male,Manchu,T'ien
female,Zhen,Su
male,Guang,Hou
male,Yuan,Fang
male,Jin,Mai
male,Kang,Han
male,An,Tai
male,Wang,Chiang
male,Yul,Kao
male,Ning,Ko
female,Xian,Lo
male,Sheng,Tao
male,Bo,Fang
male,Chen,Pan
male,Cheng,Kuo
male,Lok,Mao
male,Yong,Fang
male,Hui,Ku
male,Gang,Hou
male,Hsin,Teng
female,Yun,Yüan
male,Ho,Tao
female,Qi,Yao
male,Jin,K'ung
male,On,Chen
male,Chung,Lo
male,Cong,Ts'ao
male,Chung,Ts'ai
female,Na,Chung
male,Kong,Kung
male,Zhen,Lei
female,Ling,Tien
male,Li,Huang
male,Ning,Ts'ui
male,Shing,Tan
male,Lok,Tseng
male,Park,Hung
female,Xia,Tsui
male,Tao,She
male,Dewei,Chen
male,Cai,Ting
male,On,Han
male,Wu,Ma
male,Li,Yang
female,Hui,Pai
male,Ning,Ch'en
male,Chan,Hsiung
male,Kuan-Yin,Ch'in
male,Jian,Ch'ien
male,Jie,Teng
male,Meng,Lo
male,Hsin,Lu
male,Meng,Hsieh
male,On,Ch'eng
male,Guang,P'an
male,Shen,Chuang
male,Liang,Lung
male,An,She
male,Guo,Hsieh
male,Tain,Shen
male,Jian,Kang
male,Wen,Kuo
male,Shen,Tai
male,Jie,Liao
male,Chen,Ch'eng
male,Sun,Chu
male,Feng,Ch'in
female,An,Shih
male,De,Tsou
female,Rong,K'ung
male,Jin,Ku
male,Hui,Liu
male,Chi,Hsüeh
male,Sying,Chiang
male,Hsin,Ting
male,Tao,Chiang
female,Wei,Jen
male,De,Yüan
male,Cheng,Chao
male,Cong,Ch'ang
male,Shi,Yüan
female,Xian,Yang
male,Wei,Liang
female,Shu,Chen
male,Cai,Tuan
female,Xiao Chen,Tan
male,Song,Tseng
male,Tain,Meng
female,Jia Li,Lo
male,Long,Ch'iu
female,Xue,T'ien
male,Qiang,Ch'ang
male,Qiang,Yao
male,Wu,Ko
male,Wei,Tung
male,Liang,Ma
male,Wu,Yü
male,Qiang,Ko
male,An,Hsü
male,Lei,Chen
female,Yue Wan,Wang
male,Ye,Hsüeh
male,Ming,Tao
male,Song,Fu
male,Cong,Chou
male,Shen,Liang
male,Manchu,Tseng
male,Yul,Tuan
male,Chan,Fan
male,Yul,Tang
male,Tao,Pan
male,De,Tu
male,Cong,Hsiung
male,Xiong,Hsü
male,Manchu,Kao
male,Zhen,Hsüeh
male,De,Tien
male,Sying,Tsao
male,Guang,Hu
male,Sying,Hao
male,Gang,Hsueh
male,Jie,Niu
male,Feng,Yü
male,Long,Hou
male,Jun,Hsu
female,Fang Yin,Ch'ang
male,Chi,Ts'ao
male,Shi,Tai
male,Ye,Shao
male,Manchu,Lin
male,Fai,Fang
male,Yi,Fan
male,Zhen,K'ung
male,Meng,Teng
male,You,Liao
male,Cong,Tai
male,Hu,Meng
male,Tain,Hsing
male,Cheng,Jen
male,Sun,Lei
male,Chung,Lung
male,Wei,Yu
male,Wen,Tu
female,Guan-yin,Chien
male,Cai,Fan
male,Hsin,Fan
male,Shaiming,Yü
male,Kang,Kao
male,Sheng,Hsing
male,Yul,Su
male,You,Shen
male,Yul,Hao
male,Shing,Ts'ai
male,Zhen,Wei
male,Liang,Chung
male,Manchu,Wang
male,Kong,Yao
male,Jun,Lung
male,Fai,Lo
male,Wei,Ku
male,Kuan-Yin,K'ung
female,Tao,Lo
male,Wen,Ch'eng
male,Dong,Ch'iu
male,Dewei,Tai
male,Long,Hsiao
male,Tao,Ch'ien
male,Dong,Mai
male,Chi,Hao
male,Kang,Hao
male,Wu,Ko
male,An,Yeh
male,Shi,Ch'ien
male,Park,Chang
male,Hui,Teng
male,Lei,Liao
male,Chan,Tsao
male,Hui,Yu
male,Wang,Kao
female,Shan,Chin
male,Zhen,Tan
male,On,Yuan
male,Jie,Chien
male,Yi,Chien
male,Chi,Sung
male,Yi,Yuan
male,Song,Peng
male,Feng,Chang
male,Cai,Mao
male,Li,Tien
male,Lok,Wan
male,Cong,T'ao
male,Gang,T'an
male,Xiong,Fang
male,Shen,Ku
male,Hu,Kê
male,You,He
male,Wei,Yin
male,Chan,She
male,Hu,Yin
male,Kang,Sung
male,Ming,Meng
male,Cai,Pan
male,Lok,Yü
male,Park,P'an
male,Kong,Tung
male,Peng,Hsieh
female,Huan,Han
male,Yul,Wei
male,Gang,Kuo
female,Yuan,Lü
male,Chen,Tang
male,Yul,Ho
male,Jun,Hsieh
male,Kang,Chuang
male,Sun,Kang
male,Ning,P'eng
male,Wen,Kê
male,Jun,Sun
male,Kang,Tseng
male,Shing,Liu
male,Lian,Yao
female,Xia He,Ch'ang
male,Ye,Ch'in
female,Lien,Su
male,Qiang,K'ung
female,Yan Yan,Chiang
male,Cong,Hsia
male,Kong,Lü
female,Yi,Hsiao
male,Bao,Han
male,Yi,Su
male,Xiong,She
male,Shaiming,Chu
male,Qiang,P'an
male,Xiong,Kuo
female,Li,Wu
male,Fai,Shao
male,Yong,Teng
male,Shaiming,Hsieh
male,Jin,Fu
male,Jian,Tseng
female,Xiu,Yu
male,Tao,Hsu
male,Cai,Hsü
male,Meng,Lo
male,Chan,K'ung
male,Ming,Niu
male,Shi,Chu
male,Ming,Ho
male,Peng,Peng
male,Wu,Chung
male,Li,Cheng
male,Meng,Chang
male,Jian,Sun
male,Wen,P'an
male,Yi,Ch'iu
male,Ye,P'an
female,Yue Yan,Li
male,De,T'ien
female,Cai,Hsia
male,Shi,Feng
male,Peng,Tung
male,Ye,Tai
male,Ning,T'ao
male,Peng,Tseng
male,Feng,Mai
male,Jie,Tsou
male,Cong,Tsao
male,Wu,Yü
male,Song,Ch'iu
male,Manchu,Lü
male,Sheng,She
male,Tain,Chia
male,Dewei,Chin
male,Shaiming,Cheng
male,De,Tuan
female,Fang Yin,T'ien
male,Jie,Ch'ang
male,Hui,Yu
male,Wang,T'an
male,Peng,Mao
male,Chen,Shao
male,Qiang,Ch'eng
male,Wen,Ting
male,Tao,Liang
male,You,Ch'in
male,Yuan,Teng
male,Jie,Tung
male,Lian,Ma
male,Lok,Wei
male,Kong,Hsing
male,Park,Tuan
male,Dong,Chao
female,Li Qin,Tuan
male,Jian,Hsiung
male,Lok,Li
male,Peng,Hsüeh
male,Jian,Lü
male,Hsin,Hê
male,Feng,Hsiao
male,Chan,Lei
male,Meng,Chao
male,Li,Kê
male,Qiang,Pan
male,Chung,Liu
male,Cong,Chou
male,Feng,Chen
male,Guo,Tsui
male,Liang,Tuan
male,Hsin,Hê
male,Ye,Yu
male,Lei,Ch'iu
male,Wu,Lu
male,Wei,Wan
male,Ning,Pan
male,Chung,Ch'ien
male,Zhen,Ts'ui
male,Yi,Hou
male,Park,T'an
male,Song,Chiu
male,Ho,Yuan
male,Ming,Wan
female,Cai,P'an
male,Long,Hung
male,Kang,Ts'ai
male,On,T'ang
male,Cai,Su
male,Shen,Kung
male,Song,Pai
male,Bo,Kao
male,Park,Hao
male,Yul,Kuo
male,Manchu,Tuan
male,Dewei,Tsou
male,Sheng,Yin
male,Dong,Ku
male,Xiong,Mao
male,Ning,Lo
male,You,Kuo
male,Kang,Sun
male,Yul,Hsü
male,Xiong,Ch'ang
male,Sheng,Ch'ang
female,Ping,Feng
male,Kong,Chou
male,Jie,Chin
male,Lian,Cheng
female,Yi Min,Chen
male,Ming,Ch'ien
male,Jian,T'ang
male,Sheng,Shen
male,Tao,Hsueh
male,Jun,Fan
male,Cai,Kao
male,Kang,Fan
male,Gang,Ku
male,Ning,Pan
male,Kong,Chiu
male,Guang,Hsueh
male,Park,Pai
male,Yi,Tsao
male,Liang,Ko
male,An,Chao
male,Hui,Ho
female,Guan-yin,Yao
male,Chi,Chao
male,Bao,Chuang
male,Liang,Tsao
male,Jun,Li
male,Tao,Tuan
male,Hsin,Shao
male,Wei,Liao
male,Manchu,Fan
male,Jie,Ch'en
male,Ning,Hê
male,Jin,Niu
male,Sun,Kang
male,Guo,Ts'ai
male,Ning,Kang
male,Yong,Ch'in
male,Peng,Tang
male,Dewei,T'ien
male,Sun,Lung
male,Yi,Feng
male,Ming,Ma
male,Manchu,Tuan
male,On,Tsui
male,Song,T'ang
male,Tain,Sung
male,Cheng,Ku
female,Lan,Ma
male,Ning,Ko
male,Kang,P'eng
male,Cai,Tsou
male,Chan,Tsui
male,Shi,Ch'ang
male,Meng,Ch'ien
male,Cai,Tung
male,Kuan-Yin,Shao
male,Jun,Tu
male,De,Hê
male,De,Huang
male,Xiong,Han
female,An,Yüan
male,Chen,Tang
male,Tain,Yü
female,Huan Yue,Mao
male,An,Chin
male,Chen,Wang
male,Kuan-Yin,Chien
male,Jian,Liao
male,Chan,Shih
male,Tao,Jen
male,Cong,Hsü
male,Guo,Tai
male,Dewei,Ch'iu
male,Kuan-Yin,Lü
male,An,Tu
male,Lian,Chao
male,Ning,Lu
male,De,Yeh
male,Wen,Chuang
male,Hu,Chu
female,Yan Yan,Kê
male,Xiong,Wan
male,Shen,Han
male,Xiong,Ch'in
male,Li,Niu
male,Dewei,Tai
male,Chi,Ku
male,Dewei,Mao
male,Xiong,Hu
male,Manchu,Liang
male,Jun,Tan
male,Chung,Ch'iu
male,Dong,Pai
male,Cong,Su
male,Bao,Ko
male,Bo,Pan
male,Cheng,Tien
male,On,Han
male,Wen,Lung
female,Ni,Pai
female,Zhi,Chuang
male,Yi,Teng
male,Hu,Chien
male,Bao,Hsiung
male,Gang,Hsiung
male,Lok,Yeh
male,Shaiming,T'ao
male,Hu,Hsia
male,Yong,Ch'in
male,Ning,Ni
male,Chung,Tai
male,Ye,Ch'en
male,Long,Ch'ien
female,Zhi,Ch'ang
male,Bao,Hsü
male,Shing,Chuang
male,Song,He
male,Kang,Ts'ao
male,Jian,Ku
male,Yuan,Ts'ao
male,Long,Tuan
male,Yong,Shih
male,Kang,Hsiung
female,Zhen Juan,T'ao
male,Guang,Yin
male,Shi,T'ien
male,Long,K'ung
female,Mulan,Lo
male,Feng,Pan
male,Sying,Kao
female,Yue Yan,Chung
male,Sheng,Kung
male,Ho,Ch'ang
male,Sying,P'an
male,Bao,Sung
male,Shen,Yao
male,Lee,P'an
male,Lei,Sun
male,Gang,Teng
male,Bo,K'ung
male,Yuan,P'an
male,Tao,He
male,Chen,T'ang
male,Yi,Lai
male,Guo,K'ung
male,Sying,Tsai
male,Meng,Lung
male,Xiong,Liu
male,Ho,Ku
male,Guang,Yin
male,Yuan,Ku
female,Park,Ch'eng
male,Guang,Mao
female,Shan,Yang
male,Gang,Ts'ai
male,Guang,Lung
female,Zhen,Pai
male,Feng,Kung
male,Ming,Lung
male,Chan,Pai
male,Chen,Hsüeh
male,Tao,Yuan
male,Wen,Sung
male,Kang,Cheng
male,De,Tsai
male,Hui,Fang
male,Guo,Tan
female,Ju,Sung
male,Shen,Pan
male,Shing,Hsieh
male,Long,Hsia
male,Ming,Tuan
male,Ye,Yang
male,Yul,Hsu
male,Guo,Lü
male,Wu,Wei
male,Wang,Shih
female,Da-Xia,Ch'eng
male,An,Lei
male,Wei,Tung
male,Lei,Tsao
male,Tain,Chien
male,Gang,Ch'ang
male,Peng,Hu
male,Lok,Yeh
male,Tain,Wan
male,Chi,P'eng
male,Fai,Tan
male,Ye,Ts'ui
male,Shen,Ch'eng
male,Manchu,Tuan
male,Ye,Yin
female,Xiu,Ni
male,Hui,Ts'ai
female,Mee,Tien
male,Feng,Fan
female,Mei,Peng
female,E,Ch'ien
male,Ye,Liao
male,Zhen,Yin
male,Song,P'an
male,Bo,Pan
male,Zhen,Shao
male,Ning,She
male,Wei,Fu
male,Chi,Tsai
female,Ping,Hsing
male,De,Shao
male,Cai,Tai
male,Shen,She
male,Ye,Yuan
male,Lok,She
male,Jian,Chiang
male,Ning,Mai
male,Guo,Niu
male,Ho,Wang
male,De,Tu
male,Park,Yüan
male,Shen,Chiang
male,Kang,Hsiung
male,Hu,Teng
female,Hui,Sun
male,Hsin,Kuo
male,De,T'ien
male,Jian,Hê
female,Jiang Li,Chia
male,Lok,K'ung
male,Bo,Sun
male,Bo,P'eng
male,Dong,Tung
male,Guang,Chen
female,Park,T'ien
male,Lei,Ts'ao
male,Kuan-Yin,T'ang
male,Park,Han
male,Song,Yüan
male,Lok,Fang
male,Liang,Teng
male,Cai,Kao
male,Lian,Fu
female,Heng,Chu
male,An,Ko
male,Ho,Yeh
male,Sun,Pan
male,Lok,Ts'ao
male,Xiong,Liu
male,Liang,Tan
female,Xin Qian,Tsou
male,Cong,Yin
male,Peng,Tsao
male,Yul,Ch'en
male,Sheng,Peng
female,Qing,Hao
male,Sheng,Ch'en
female,Hua,Ts'ao
male,Shen,Liao
male,Park,Yuan
male,Qiang,Ni
male,Lok,Tsui
male,Jie,Wang
male,Jian,Chou
male,Liang,Hu
male,Liang,Yin
male,Kong,Chu
male,Chen,Ts'ao
male,De,Lung
male,Hui,Chiang
male,Feng,He
male,Bao,Hung
male,Dewei,Hao
male,Hsin,Tseng
male,You,Chung
male,Hsin,Chin
female,Dai,Tsai
male,Feng,Tai
male,Hu,Kuo
male,Cong,Kung
male,Fai,She
male,Kang,Teng
male,Tao,Chiu
male,Wang,Ku
male,Dewei,Chao
male,Lei,Hsing
male,Wei,Hou
female,Xian,Pai
male,Guang,Jen
female,Mee,Tsai
male,Tain,Tsou
male,Cai,Kuo
male,Lee,Yüan
male,On,Chiang
male,Ming,Hsiao
male,Shi,Jen
male,Xiong,Fan
male,Wen,Yu
male,Jian,Chao
male,Peng,Ho
male,Tain,Hu
male,Yul,Chao
male,Meng,Ch'ien
male,Liang,Liao
male,Hsin,Tang
male,Lian,Peng
male,Guang,Teng
male,Park,Hsueh
male,De,Lin
male,Sying,Yeh
male,Jian,Wan
male,You,Han
male,Tain,Pai
male,Liang,Ch'eng
male,Wei,Hsieh
female,Ying,Li
male,Wei,Kao
male,Wang,Mao
male,Wu,Hu
male,On,Ch'ang
male,Ning,Ch'ien
female,Lili,Pai
female,Genji,Yuan
male,Xiong,Chien
male,Sheng,He
male,Manchu,Meng
female,Ju,Ni
male,Tao,Kung
male,Peng,Ts'ao
male,Wei,Hsing
male,Cong,Peng
male,Shen,Pai
male,Li,Hu
male,Hui,Wang
male,Wang,Peng
male,Hui,Chuang
male,Shi,Chou
male,Feng,Ch'ien
male,Gang,Kung
male,Cai,Pan
male,Shing,Hsueh
male,Guo,Tung
male,Shi,Tsou
male,Peng,Wang
male,Gang,She
male,Chen,Ch'ien
male,Hsin,Hao
male,You,Kang
female,Yun,Mai
male,Gang,Tuan
female,Cai,Hung
female,Qiao,Feng
female,Yue You,Fu
male,Shen,Lu
male,Jian,Ch'ang
male,Jun,K'ung
male,Meng,Mao
female,Chow,Ho
male,Manchu,Hsüeh
male,Yong,Ts'ai
male,Ho,Mai
male,Hsin,Ku
male,Park,Ku
male,Jie,Kê
male,Xiong,Liao
male,Ye,Tseng
male,Bao,Fang
male,Cai,Ts'ao
male,Peng,Hsu
male,Bo,Han
male,Song,Tsui
male,Jie,Ch'en
male,Chen,Tsao
male,Yong,Pan
male,Wu,Chiang
male,Kong,P'eng
male,Guo,Yu
male,Shi,Chia
male,Qiang,Tsui
male,Fai,Yu
male,Kang,P'eng
male,Hui,Ts'ai
male,Yi,Kê
male,Cong,Yin
male,Jun,Meng
male,Shing,Tu
male,Hu,Lung
male,Dewei,Hsü
male,Cai,Ts'ui
female,An,Peng
female,Mulan,Chia
female,Yi,Teng
male,Hui,Ch'eng
female,Cai,Peng
male,Xiong,Yin
male,Lok,Hsiung
male,Wei,Tai
male,Jian,She
male,Sun,Hou
male,Yuan,Han
male,Li,Niu
male,Park,Liao
male,Tao,Hsü
male,Cai,Ku
male,An,Ma
female,Jia Li,Chien
female,Cui,Hê
male,Yul,Tsui
male,Yuan,Hsü
male,Cheng,Chien
male,Ning,T'an
male,Long,Tan
male,Meng,Kang
male,Shaiming,Hsü
male,Chung,Ko
male,Yuan,Hao
male,Shaiming,Kang
male,Hui,Tsou
male,Feng,Shih
male,Hui,She
male,Ye,Lin
male,Chung,Tao
male,Guang,Ch'ien
male,Ning,Chou
male,Yul,Hsing
male,Lee,Kung
male,Dong,Ho
female,Xiuxiu,Wei
male,Xiong,Ch'ien
male,Jun,Fan
male,Chung,T'ang
male,Bao,Ch'eng
male,Sying,Lo
male,Sying,Shao
male,Gang,T'an
male,Manchu,Hê
male,Wu,Niu
male,An,Mao
male,Ye,Teng
male,An,Hsüeh
male,Lei,Kao
male,Shing,Hsing
male,Wen,Fang
male,Lei,Teng
male,Cong,Ting
male,Chan,Fang
male,Hsin,Sung
male,Guo,Shen
male,Long,Yu
male,Shing,Liu
male,Shi,Hsüeh
male,Jian,Sun
male,Hu,Tang
female,Qiao,Ts'ai
male,Qiang,Tsou
male,Dong,Shao
male,Kuan-Yin,Hsueh
male,Wei,Tuan
male,Shing,Hsueh
male,Xiong,Mai
male,Hui,Chao
male,Wu,Yu
female,Cai,Yen
female,Lili,Mao
male,Chung,T'an
male,Kuan-Yin,Hsu
male,Yuan,Lin
male,Shen,Hsia
male,Shen,Tai
male,Guang,Hsüeh
male,Yong,Kuo
male,Ho,Ch'in
male,Sun,Lo
male,Shing,Yuan
male,Jie,Tung
female,Hui,Hê
male,Manchu,Lei
male,Chi,Shih
male,Bo,Pan
male,Wen,Yu
female,Zhen Juan,Liang
male,Lei,Ting
male,Wang,Sung
male,De,Liu
male,Shing,Hsieh
male,Shi,Teng
male,Kang,Ting
female,Chan,Ho
male,Shen,T'an
male,Sun,Chiang
male,Kuan-Yin,She
male,Guang,Chao
male,Lian,Tsou
male,Manchu,Kang
male,Shi,Yuan
male,De,Lung
male,Chen,Chung
male,Yuan,Hu
male,On,Lei
male,Peng,Pan
male,Yul,Chin
male,Long,Ts'ao
male,Dewei,Tsui
male,Hu,Hao
female,Xiao Hong,Chiang
male,An,Teng
male,Song,Ho
male,Jian,Ku
male,An,Chou
female,Xian,Ku
male,Park,Tien
male,Kong,Yuan
male,Kang,Ting
male,Tain,Ch'eng
male,Jian,Kuo
male,De,Yeh
male,Fai,Ko
female,Ping,Ch'en
female,Chan,Tuan
male,Lei,Chien
male,Guang,Wan
male,Yong,Hsia
male,Chung,Hsu
male,Wang,Ch'ang
male,Qiang,Lu
male,Sun,Jen
male,Song,Lei
male,Liang,Ts'ai
male,Xiong,Cheng
male,Manchu,Ts'ai
male,Wang,Chen
male,Ho,Yuan
female,Rong,Lü
male,Tao,Tsai
male,Hui,Yao
male,Fai,Yeh
male,Kong,Su
male,Yuan,Hsing
male,Wei,Ts'ao
female,Xiuxiu,Lin
male,Bao,Yuan
male,Ning,Sun
male,De,K'ung
male,Hui,She
male,Dong,Yao
male,You,Ts'ao
male,Liang,Hsieh
female,Chow,Lü
male,De,Yü
male,Lei,Wan
male,Wu,Tsou
male,Qiang,Lai
male,Cai,Yü
male,Hu,Chin
male,Feng,P'an
male,Dewei,Ku
male,Yuan,P'eng
male,Wei,Jen
male,Lian,Tuan
male,Shi,Hu
male,Sying,Hê
male,Jun,Ting
male,Yong,Yin
male,Dewei,Tsui
male,Chi,Li
male,Wang,Tan
male,Song,Yuan
male,Fai,Tung
male,Qiang,Lo
male,Guo,Lai
male,Bao,Fang
male,Shaiming,Tsao
male,Tain,Hsueh
male,Tain,Yin
male,Song,Yüan
male,Dewei,Kung
male,Ming,Chou
male,Yong,Chuang
male,Shi,Mao
male,Long,Yü
female,Xiaoming,Hsueh
male,Peng,Lu
male,On,Chuang
male,Song,Hao
male,Wu,Tien
male,Feng,Kê
male,Wen,T'ao
female,Cai,Hu
male,Shaiming,T'ao
male,Lian,Lin
male,Tain,Fang
male,Qiang,Hou
male,Qiang,Wu
male,Manchu,Yuan
male,Cong,Chien
male,Lee,Lai
male,Meng,Shao
female,Yu,Tseng
male,Jian,Ch'en
male,Ho,Chou
male,Chan,Lin
male,Hui,Ts'ao
male,Xiong,Ch'eng
male,Kang,Lü
female,Xiuxiu,Tang
male,You,Hsia
male,Peng,Pai
male,Guo,Hou
male,Cong,Lin
female,Ju,Ko
male,Jian,Tang
male,Cong,Liu
male,Shen,Tsou
male,Bo,Peng
female,Jia Li,Lai
male,Shi,Lu
male,Lei,Teng
male,Yong,P'an
female,Jing,Ch'in
male,Chen,Han
male,Tao,T'ang
male,Ho,Lo
male,Cai,Kuo
male,Shen,Chuang
male,Shaiming,Liao
male,Cong,Hsiao
male,You,Hao
male,Hui,Chien
male,Tao,Hu
female,Yuan,Lin
male,Ming,Pai
male,Kuan-Yin,Meng
male,Jian,Ma
female,Lian,Yü
male,Long,Yü
male,Shing,Yeh
male,Fai,Tao
male,Hsin,T'ang
female,Li Mei,Yu
male,Tain,Hsueh
female,Li Ming,Chou
male,Kang,Pan
male,Long,Hung
male,Dong,T'ao
female,Li Na,Hê
male,Kang,Tuan
female,Cui,Chiang
male,Feng,Kang
male,Guo,He
male,Bao,Sun
male,Wei,Kao
male,Shaiming,Tai
male,Cong,Hsieh
female,Li,Tan
male,Ning,She
male,De,Yang
male,Fai,Sun
male,Chan,Kuo
male,Meng,Yang
male,Jin,K'ung
male,Yi,Meng
male,Li,Hsiung
male,Chan,Hsueh
male,Hu,Liu
female,Jing,Ts'ui
male,Shi,Wan
male,Feng,Sun
male,Ming,Ch'eng
male,Jian,Lin
male,Ho,Shao
male,Qiang,Ni
male,Shaiming,Tang
male,Shing,Tseng
male,Wu,Liao
male,Dewei,Chiang
male,Chen,Yeh
male,Jin,T'an
male,An,Liu
male,Song,Hsü
male,Yuan,Sun
male,Jun,Hsüeh
male,Meng,Lu
male,Liang,Chuang
male,Wei,Yü
female,Jiang Li,Tsui
male,Bo,Sung
male,Long,Tan
male,Yul,Hsia
female,Fang,Hsiung
male,Meng,Yeh
male,Gang,Niu
male,Tao,Liang
male,Yuan,Chung
male,Shaiming,Tsao
male,You,Hsü
male,Chung,Tung
female,Yi Min,Chiu
male,Bo,Niu
male,Manchu,Tan
male,Manchu,Ts'ui
male,Lei,Kang
male,Tain,Hê
male,Sun,Ts'ui
male,Lian,Lo
male,Chung,Tuan
male,Tao,Fu
male,Lee,Yü
male,Kang,Ts'ui
male,Manchu,Su
male,Meng,Liang
male,Hu,Tien
male,Cheng,Yen
male,Tain,Ch'ang
male,Meng,Hsing
male,Fai,Lü
male,Wei,She
male,Xiong,K'ung
male,Jun,Lo
male,Dong,Fan
male,Jian,Ts'ai
male,Lei,Ch'ien
male,Hsin,Ch'in
male,Cheng,Mai
male,Ye,Chin
male,Meng,Jen
male,Long,Niu
male,Gang,Yu
male,Manchu,Chiu
male,You,Tang
male,Wen,Chao
male,Ye,Tsui
male,Wang,Kang
male,Shi,Chao
female,Park,Liang
male,Li,Chu
male,You,Yang
male,Yul,Ts'ai
male,Wen,Yin
male,Chung,Sun
male,Shaiming,Chou
male,Shaiming,Chou
male,Chan,Tao
male,Jun,Jen
male,Gang,Shao
male,Hu,Lung
male,Feng,Hsieh
male,Qiang,Wan
male,Yuan,Teng
male,Kuan-Yin,Tsao
male,Guang,Yüan
male,Cai,Lai
male,Shaiming,Yao
female,Jiao,Tsai
male,Dewei,Tao
male,Meng,Ts'ao
male,You,Yuan
male,Guo,Lin
male,Hu,Tsai
male,Sying,Yu
male,Hsin,Yang
male,Lei,Pan
male,Kang,Ts'ao
male,Gang,Lo
female,Wan,Yüan
male,Wu,Shao
male,Yuan,Hsieh
male,Wen,Sung
female,Zhu,Kao
male,You,Mao
male,Wei,Pai
male,Hsin,Sun
male,Xiong,Chu
male,Yi,Tung
male,Tao,Yin
male,Song,T'ang
male,Manchu,Yin
male,Cai,Feng
male,Yi,Fan
male,Ming,Hsing
male,Shaiming,Ch'en
male,Wang,Chung
male,Hui,Lung
male,Sheng,Pai
male,Dong,Su
male,Tao,T'ien
male,Guo,Ch'ang
male,Ming,Shao
male,On,Pan
male,Jin,Ch'eng
male,Kang,Hsieh
male,Sun,T'ao
female,Li Mei,Tuan
male,Kuan-Yin,Ku
male,Dewei,Lu
male,Sun,Pan
male,Tao,T'ien
female,Li,Ch'en
male,Chen,Tung
male,Jie,Ch'ien
male,Ho,Wan
male,Qiang,Su
male,Chan,Mao
male,Liang,Yüan
male,Sun,Ku
male,Park,Yü
male,Park,Ko
male,Park,Kê
male,Chen,Chia
male,Kang,Tao
male,Ning,Niu
male,Ho,Ch'en
male,Cong,Huang
female,Juan,Lo
male,Shen,Chiu
male,Chan,Yen
male,Qiang,Ma
male,Lok,Jen
male,Shi,Tien
male,Wu,Hou
male,Sun,Hê
male,Qiang,Chia
male,Wen,Chiang
male,Lei,Yao
female,Qiong,Tuan
male,Kong,Feng
male,Cong,Hu
male,Qiang,Hsia
female,Qiao,Hsiao
male,Shing,Tung
male,Shi,Chiu
male,Jin,Tsui
male,Lian,Tsai
male,Cai,Tai
male,Kuan-Yin,Sung
male,Song,Ch'en
male,Bo,Hsieh
female,Li Mei,Huang
male,Lei,Tsai
male,Feng,Hê
male,Ho,Jen
male,Song,Yao
female,Xue Fang,Chiang
male,Kong,Ku
male,Guang,Tu
male,Wen,Ts'ai
female,Yi Jie,Sun
male,Lok,Ko
male,You,Chin
male,Feng,Tai
male,Guo,Chia
male,Lian,Lung
male,Cheng,Ni
male,Feng,Liu
male,Song,T'ien
male,Guo,Pai
male,Chen,Shao
male,Fai,Hung
male,Meng,Chao
male,Xiong,T'ang
male,Chan,Chao
male,Wen,Tsai
male,Cong,Ch'eng
male,Chung,Ts'ao
male,Jie,P'eng
female,Li Hua,P'eng
male,Feng,Ku
male,Lok,Mao
male,Song,Tung
male,An,Wei
male,Shing,Tien
female,Xue Fang,Chao
male,Guang,Ch'ang
male,Yi,Tung
male,Shen,Ts'ao
female,Hui,Chang
male,Lian,T'ang
male,Peng,Hsueh
male,An,Ni
male,Tain,Chou
male,Zhen,Hsüeh
male,Long,Han
male,Meng,Ch'in
male,De,Yen
male,Dong,Wu
male,Lian,Sung
male,On,Tu
male,Long,Ch'iu
male,Bao,Tsao
male,Zhen,Yeh
male,Dong,Mao
male,Qiang,Meng
female,Wei,Ch'in
female,Tao,Yeh
male,Shaiming,Tan
male,An,He
male,Ming,Hsüeh
male,Fai,Ch'iu
male,Guang,Hsueh
male,Tao,Meng
male,Jie,Tsai
male,Jian,Lo
male,Song,Ku
male,Jian,Ts'ao
male,Chen,Yin
female,Yi Min,Ch'eng
male,On,Chou
male,Jie,Kang
male,Yong,Sun
male,Shaiming,Kang
male,De,Wan
male,Ning,Fan
male,Park,Ku
male,Guo,Ko
male,Kuan-Yin,Peng
male,Shen,Ho
male,Ye,Tung
male,Dewei,Wu
male,Chi,Pan
male,Jie,Ch'iu
male,Meng,Pan
male,Cai,Shih
male,Sying,Chien
male,Cheng,Pan
male,Cai,Yüan
female,Lan,He
female,Yi Min,Lung
male,An,Hsueh
male,Ming,Hsing
male,Kong,Cheng
male,Feng,Cheng
male,Guang,Chia
male,Dong,Hsieh
male,Park,Tang
male,Hsin,Tai
male,Lee,Chuang
female,Juan,Kê
male,Yi,Tsao
male,Bo,Liang
male,Wei,Wan
male,Long,Chuang
male,De,Tseng
male,Cheng,Liu
male,Tao,Liu
male,Kang,Hu
male,Yul,Yü
male,Bo,Lai
male,Shen,Chen
male,Qiang,Tsai
male,Wen,Peng
male,Gang,Fang
male,Kong,Yin
male,Jun,Hsieh
male,Jun,Pai
male,Tao,Hou
male,Dong,Cheng
male,Shing,Ho
male,Guo,Hsieh
male,Shi,Ts'ao
female,Lei,Lai
male,Cheng,Lo
female,Feng,Tang
male,Wu,T'ang
male,Jian,Hê
female,Shuang,Ma
male,De,Chien
male,Tain,Ch'in
female,Li Ming,Kang
male,Xiong,Ma
male,Bo,Chang
male,Sun,Chen
male,Ye,Lo
male,Park,Sun
male,Feng,Liao
