﻿Gender,GivenName,Surname
male,Mahdi,Zwijnenburg
male,Arnold,Winkler
male,Aaldrik,Nieborg
male,Esper,Hagen
male,Marcel,Hofmann
male,Gianno,Tjalsma
male,Rafiq,Steeghs
male,Mattias,Hiemstra
male,Daniel,Brandt
male,Sancho,van den Bos
male,Achraf,Moret
male,Leon,Kalb
female,Marina,Hofmann
male,Dennis,Brandt
male,Bader,Kling
male,Mario,Mehler
male,Markus,Baumgaertner
male,Jeen,Wassen
male,Markus,Berg
male,Torsten,Schulze
male,Sven,Gärtner
male,Beerd,van der Avoird
male,Frank,Freud
male,Demy,Visser
male,Jeffery,van der Haas
male,Ralph,Faust
male,Ulrich,Gottlieb
female,Nathasja,Dubbelaar
male,Maickel,Boxman
male,Dex,Lokker
male,Gürkan,Vrijburg
male,Lucas,Wagner
male,Şafak,Kelder
male,Jens,Becker
male,Mike,Klug
male,Eren,Kamermans
male,Jonas,Strauss
female,Audry,Elting
male,Philipp,Faust
male,Tobias,van Kemenade
male,Rio,Bosma
male,Marcel,Pfaff
male,Oege,Lankhorst
male,Peter,Abendroth
male,Dewy,Hoiting
male,Stephan,Gottlieb
male,Philipp,Hertzog
male,Wissam,Lukkien
male,Mathias,Herz
male,Jans,Valkenburg
male,Felix,Holzman
female,Sakine,de Meijer
female,Aantje,Steinbach
female,Danischa,van Liempd
male,Roman,Gardenier
male,Flavio,Raja
male,Rashied,van den Braak
male,Desney,Wijbenga
male,Thimo,Pieterson
female,Klaudia,Feierabend
male,Ulrich,Schreiber
male,Sven,Gottlieb
male,Alexander,Peters
male,Li,de Feijter
male,Wolfgang,Herman
female,Melanie,Goldschmidt
male,Denny,Walinga
male,Jan-Paul,Brunsveld
male,Diogo,Rouschop
male,René,Lange
male,Ralph,Pfeiffer
male,Sanne,Lentjes
male,Rune,van de Graaf
male,Aria,Dijkslag
male,Dieter,Freytag
male,Kevin,Reinhard
male,Ralf,Kappel
male,Johnno,van der Meijs
male,Marko,Nacht
male,Dmitri,Martinus
male,Casparus,Commandeur
female,Devon,Klippel
male,Obed,Spek
male,Egidius,Meeuwsen
female,Daniela,Hueber
male,Tobias,Gloeckner
male,Tobias,Kunze
male,Luca,Nagel
male,Félix,van Oevelen
male,Andreas,Brandt
female,Sumaya,Holleman
male,Binc,Burgers
male,Jurgen,Ottens
male,Don,Buijk
male,Iza,van Steen
male,René,Seiler
male,Len,Stoelwinder
male,Alexander,Waechter
male,Eric,Zimmer
male,Ralf,Eberhardt
female,Christina,Abendroth
male,Sanjin,Roose
male,Goossen,van Daal
male,Robert,Vogel
male,Numan,Steijaert
female,Sabine,Lange
male,Chafik,Snip
male,Markus,Krueger
male,Sebastian,Kalb
male,Marko,Daecher
male,Franck,Straatsma
male,Akaash,Moraal
male,Marco,Freytag
male,Phillipp,Daecher
female,Gabriela,Boef
male,Sven,Fried
male,Hendrik,Winkel
male,Christian,Schroder
female,Leonie,Köhler
male,Leon,Brandt
male,Willibrordus,Muradin
male,Phillipp,Baier
male,Marko,Schreiner
male,Steffen,Baumgaertner
male,Thomas,Kohler
male,Benjamin,Hoffmann
male,Erik,Feierabend
male,Yang,Brienen
male,Jens,Lang
female,Barbara,Weiß
male,Tom,Fruehauf
male,Jules,Bloemendaal
male,Dominik,Frey
male,Matthias,Zimmer
male,Felix,Loewe
male,Marcel,Baumgaertner
male,Dieter,Probst
male,Arda,van der Kaaij
male,Nasr-Eddine,Molenaar
male,Niklas,Wagner
male,Philipp,Frueh
male,Oktay,van den Haak
male,Yonah,Steeghs
male,Ralph,Finkel
female,Jetske,Kloek
female,Vanessa,Grunwald
male,Rayn,Slotman
male,Jonas,Moeller
male,Age,Padmos
male,Swen,Kappel
male,Ermin,Harreman
male,Rochus,Klok
male,Bader,Kuiters
male,Muhammad,Roerink
male,Alexander,Koenig
female,Mandy,Neumann
male,Marcel,Koehler
male,Salar,Sanches
male,Adrie,Moerenhout
female,Claudia,Bruinsma
male,Jörg,Mehler
male,Ronaldus,Elting
male,Tobias,Eberhardt
male,Thomas,Dreher
male,Bernd,Aachen
male,Haydar,van Gaans
male,Florian,Gersten
male,Michael,Weisz
male,Paul,Brauer
male,Markus,Bachmeier
male,Kristian,Foerster
male,Peter,Bar
male,Jor,Biesheuvel
male,Dejan,Liu
male,Steef,Veraart
male,Phillipp,Eichmann
male,Alain,Brown
male,Jared,Raaphorst
male,Brady,Neggers
male,Lando,de Knegt
male,Bento,Op den Kamp
male,Sven,Sommer
male,Kas,Hamersma
male,Jan,Nagel
male,Steffen,Urner
female,Wieneke,Bulten
male,Tobias,Gärtner
female,Jennifer,Dresner
male,Patrick,Weissmuller
male,Boi,Huynh
male,Stephan,Eberhardt
male,Lucas,Beich
male,Lukas,Achen
male,Levon,Brongers
male,Philipp,Abt
female,Lea,Wirth
male,Chris,Hoogerdijk
male,Matthijs,Bertrand
male,Stefan,Schreiber
male,Seyit,van Beekveld
male,Klaus,Eisenhower
male,Caspar,van der Mast
male,Heine,Braber
male,Leendert-Jan,Tummers
male,Kin,van Doeselaar
male,Christian,Ostermann
male,Ralph,Neudorf
male,Jorik,van der Wouden
male,Giulio,Groos
female,Halima,Henneman
male,Amrit,Kraaijenbrink
male,Prashant,van der Haven
male,Steffen,Friedmann
male,Fokke,Koelemeijer
male,Shaun,Hol
male,Marcel,Sankt
male,Amando,Roode
male,Nassim,Koens
female,Lisa,Freytag
male,Earl,Hoogduin
female,Mandy,Mueller
male,Max,Strauss
female,Angelika,Maur
male,Tiddo,Komen
male,Sven,Schweitzer
male,Ferrie,Duijzer
male,Stefanos,Boesveld
male,Wolfgang,Freitag
male,Thomas,Werfel
male,Christian,Schweitzer
male,Daniel,Gersten
male,Peter,Gerber
male,Marcel,Krüger
male,Alexander,Faerber
male,Markus,Gaertner
male,Eric,Baum
male,Merdan,Hazenberg
male,Chung,Knop
male,Hayrettin,Slagboom
male,Erik,Gersten
male,Müslüm,Meulendijk
male,Dinand,Hijink
male,Leo,Sikkema
male,Alexander,Walter
male,Mario,Pfaff
male,Dominik,Engel
male,Arvid,Brattinga
female,Jana,Winkel
female,Jacquelien,Otterspeer
male,Richano,Haneveld
male,Dieter,Finkel
male,Mike,Kohl
male,Max,Pabst
male,Mario,Kortig
male,Callum,van Munster
female,My,Phan
male,David,Jager
male,Jörg,Kuester
male,Luca,Berg
male,Rico,Nolte
male,Tim,Hoffmann
male,Steffen,Fuchs
male,Sven,Schultheiss
male,Rafik,van Hoef
male,Kenn,Stokhof
male,Jonas,Rothstein
female,Lisa,Herrmann
male,Niklas,Freeh
male,Luca,Schmitz
male,Matthias,Schroder
male,Bernd,Hertz
female,Lichelle,Bertrand
male,Zefanja,de Heus
male,Jonas,Ackerman
male,Luca,Peters
male,Steffen,Schaefer
female,Anke,Fiedler
male,Rudmer,Wobben
male,Thorsten,Ritter
male,Dennis,Nadel
male,Yu,Augustinus
female,Pietertje,van Hooft
male,Mario,Hertzog
male,Thomas,Berg
male,Rinaldo,List
male,Ercan,van Schuppen
male,Frank,Bergmann
male,Rinus,Maessen
male,Werner,Sala
male,Benjamin,Daalmeijer
male,Sebastian,Loewe
male,Swen,Schneider
male,Harrie,Rijsdijk
male,Arris,Hajji
male,Martin,Sanger
male,Ralph,Foerster
male,Ryan,Brinkman
male,Peter,Vogt
male,Fadil,Mientjes
male,Timen,Vaessen
male,Maik,Koertig
male,Leon,Grunwald
female,Kristina,van der Staaij
male,Abdeslam,Swets
male,Kristiaan,Bakker
male,Jamie,Reerink
male,Tonny,Adolfs
female,Jana,Neumann
female,Thalina,van Rooden
male,Sven,Cole
male,Dennis,Bar
male,Jakobus,Johannes
male,Arne,Stellingwerf
male,Chahid,Kaptein
male,Bernd,Drescher
male,Andreas,Seiler
male,Antoon,Noot
male,Philipp,Pfeiffer
male,Torsten,Metzger
male,Steffen,Mueller
male,Mike,Hahn
male,Dennis,Schweizer
male,Oualid,Guldemond
male,Mustafa,Westerink
male,Swen,Goldschmidt
male,Tim,Muench
male,Peter,Weissmuller
male,René,Baier
male,Tibo,Louwe
female,Anke,Freud
male,Rayvano,Claassens
male,Tabe,Bogaert
female,Laura,Wechsler
male,Maik,Eberhardt
male,Denzel,Bronswijk
male,Varun,Smeele
male,Gijsbertus,Dijkhoff
male,Dennis,Fisher
male,Tim,Friedman
male,Maximilian,Kruger
male,Fin,Bruntink
male,Daimy,ter Laak
male,Robert,Waechter
male,Jaiden,van Rens
male,Nout,Balvert
male,Jamie,Slikker
female,Sophia,Wagner
male,Patrick,Abend
male,Paul,Bach
male,Max,Gerber
male,Stefanus,Ellens
male,Jürgen,Neumann
male,Sven,Reinhard
male,Hanifi,Blanker
male,Sven,Schmidt
male,Resul,Veldhuizen
male,Ralph,Eisenhower
male,Vernon,Boosten
female,Gülizar,Kuper
male,Lucas,Bürger
male,Martin,Baumgaertner
male,Kristian,Hahn
male,Maximilian,Grunewald
female,Cyrille,Marijs
male,Erik,Fuchs
male,Daniel,Fenstermacher
male,Christian,Kastner
male,Oğuz,Mom
male,Remi,Lubben
male,Marcel,Bader
male,Klaus,Wirth
male,Frank,Herz
male,Daniel,Gottschalk
male,Abderrahmane,Pluijm
male,Wisse,van Steensel
male,Fabio,Compier
female,Jacobje,Soekhai
female,Anke,Konig
male,Dmitri,Weerts
male,Servé,Augustinus
female,Kristin,Eichmann
male,Jaïro,Strijker
male,Otmar,de Beer
female,Solane,Bouterse
male,Marco,Bayer
male,Yilmaz,Zandbergen
male,Bastijn,Roelink
male,Mohammed,van Hal
male,Marin,Leunissen
male,Lucius,Huntink
male,Patrick,Kuster
male,Ulrich,Konig
male,Keimpe,Doornekamp
male,Florian,Wirth
male,Sterre,Tielen
male,Maximilian,Beyer
male,Dinand,Bakkum
male,Wolter,Bouland
male,Arjo,Kroon
male,Kieran,van 't Slot
male,Alae-Eddine,Westerhout
male,Jens,Richter
male,Yke,van der Tuuk
male,Quintus,Heuveling
male,Stephan,Lehrer
male,Querijn,Bettink
male,Shahid,van Viegen
male,Matthias,Schwarz
male,Kevin,Bayer
male,David,Abend
male,Thorsten,Brandt
male,Uwe,Schultheiss
male,Jelger,Purperhart
female,Andrea,Theissen
male,Ralph,Glockner
male,Wolfgang,Kaestner
male,Manasse,Hofstra
male,Alban,Louwerens
female,Ursula,Schiffer
male,Rohan,van Gool
male,Sharmarke,van der Tol
male,Eser,Budel
male,Huub,Bolhuis
male,Luca,Köhler
male,Mamadou,Betten
male,Tarık,Luiten
female,Leonie,Kappel
male,Jacques,van Kempen
male,Klaus,Kappel
male,Jörg,Weiss
male,Phillipp,Baecker
male,Scott,van der Schoot
male,Billie,van Brink
male,Danny,van Seventer
male,Dominik,Diederich
female,Jana,Weber
male,Wytze,Arkesteijn
male,Lucas,Gloeckner
male,Alexandros,Jochems
male,Wieger,van de Ven
male,Andreas,König
male,Jürgen,Bayer
male,Lukas,Papst
male,Jens,Moeller
male,Olle,Sieders
male,Fokko,Hofste
male,Emil,Wagter
male,Kristian,Lemann
male,Sheldon,Basten
male,Kuno,Schurink
male,Frank,Weissmuller
male,Aymen,Neels
male,Tom,Zimmermann
male,Raf,Achahbar
male,Kayra,Braaksma
male,Shahin,Kuperus
male,Jarod,de Winkel
female,Karlijne,Looman
male,Bülent,ten Hoor
male,Ermin,Bolink
male,Kevin,Winkel
male,Matthias,Ackerman
male,Andreas,Fisher
female,Shareen,Honing
male,Jürgen,Duerr
male,Lukas,Schroeder
male,Damiaan,Hogendoorn
male,Dieter,Schulz
male,Henk-Jan,Manuel
male,Jamairo,van Schaick
male,Salman,Bastiaans
male,Peter,Bachmeier
male,Stephan,van Kuilenburg
female,Danitsja,Peulen
male,Coert,Kuiperij
female,Semanur,van Boheemen
male,Moustapha,Gubbels
male,Mo,Boelhouwers
male,Dominik,Weiss
male,Fred,Oude Nijhuis
male,Robert,Pfeffer
male,Jonas,König
male,Akira,Riedijk
female,Andrea,Papst
male,René,Nussbaum
male,René,Nadel
male,Thomas,Schulz
male,Martin,Wurfel
male,Sebastian,Hueber
male,Ivo,Schoop
male,Thorsten,Rothschild
male,Talha,Bleij
male,Benjamin,Ebersbach
male,Markus,Baader
male,Frank,Braun
female,Melanie,Holtzmann
male,Leon,Daecher
male,Markus,Probst
female,Bernardina,van Kooten
male,Maik,Kortig
female,Eugenie,Loenen
male,Jonas,Himmel
male,Jonas,Freeh
male,Alican,Schoones
male,Ariën,Brunink
male,Max,Pfeffer
male,Lauran,Roersma
male,Jan-Willem,Sportel
male,Kai,Wessel
male,Harm-Jan,Nuiten
male,Torsten,Kirsch
male,Hanan,Schotte
male,Jörg,Bach
male,Qasim,Honcoop
male,Hong,Ederveen
male,Dieter,Ackerman
male,Philipp,Baecker
male,Mario,Krüger
male,Emiel,Siegers
male,Phillipp,Baumgaertner
male,Ganesh,Vermaat
male,Erik,Maurer
male,Dennis,Freitag
male,Pjotr,Hofstee
male,David,Becker
male,Kâmil,Bex
male,Bernd,Abt
male,Niall,Bogaard
male,Boaz,Meter
male,Phillipp,Dreher
male,Cyrille,Broer
male,Mario,Weissmuller
male,Tim,Pfeffer
male,Sebastian,Kohl
male,Jordie,Servaas
male,Laurentius,Wennekes
male,Jisse,Gros
male,Seyhan,Turk
female,Anna,Fuchs
male,Tom,Foerster
male,Matty,Verhelst
male,Diégo,Penninkhof
male,Mario,Baader
male,Ricco,Dijkhuis
male,Lucas,Ebersbach
male,Kevin,Weber
male,Ersan,van Hoogdalem
female,Nandi,Meeuwsen
male,Steffen,Reiniger
male,Uwe,Burger
male,Daoud,Kroonenburg
male,Dominik,Achen
female,Anita,Bol
female,Chloë,van Dun
female,Elia,Cuperus
male,Maik,Bach
male,Thibault,Roosjen
male,Athanasios,ter Schure
male,Sameer,Nijeboer
male,Abdül,Sijbrandij
male,Steffen,Reiniger
male,Quin,van Willegen
male,Dirk,Muller
male,Thorsten,Kaestner
male,Wobbe,Berg
male,Sebastian,Hertzog
male,Tobias,Decker
female,Tesse,van de Meerendonk
male,Max,Naumann
male,Muhammet,Meuwese
female,Christine,Hertzog
male,Mitch,Ham
male,Enver,Teunis
male,Matthias,Schweizer
male,Jürgen,Farber
male,Stuart,Aydin
female,Maira,Eelman
male,Dominik,Meister
male,Siebrand,Maurits
male,Bernd,Klein
female,Kathrin,Weiß
female,Chiara,van Cuijk
male,Uwe,Lowe
male,Markus,Walter
male,Stoffel,Oranje
male,Erik,Egger
female,Annoeska,Stam
female,Barbara,Osterhagen
male,Marcel,Schmitt
male,Raimon,Verboven
male,Ike,de Jongh
male,Sebastian,Eichel
male,Mario,Beyer
male,Leon,Fuerst
male,Ralf,Wirth
male,Hazar,Kamp
male,Marlin,Hahn
female,Veere,van Niel
male,Dirk,Kohl
male,Lukas,Kuefer
male,Sascha,Doornekamp
male,Benji,Gouda
male,Hamit,Satter
male,Torsten,Hoch
male,Freerk,Vianen
male,Taeke,Stobbe
male,Moustapha,Houtkamp
male,Fenno,Schuur
male,Mathias,Luft
female,Marcha,Kelly
male,Ralph,Werfel
male,Henrikus,Tadema
male,Marnix,Baks
male,Jaromir,Everaers
male,Ulrich,Hoover
female,Penelope,Bal
male,Jürgen,Friedman
male,Frank,Friedman
male,Angelino,van Neer
male,Steffen,Shuster
male,Amin,Stempher
female,Christine,Decker
male,Vadim,Pijl
male,Christian,Schreiber
male,Bodi,Speksnijder
female,Loren,de Vrieze
male,Ivan,Meems
male,Ian,Velthuizen
male,Eric,Baecker
male,Moshe,Linschoten
male,Sebastian,Wolf
male,Age,Niezen
male,Celal,Verleg
female,Nassira,Gerritzen
male,Arnaud,Zagers
male,Tolunay,Ramdin
male,Lorenz,Gevers
male,Patrick,Möller
male,Seppe,van der Wulp
male,Kevin,Schmitt
male,Robert,Kluge
male,Florian,Beich
male,Stephan,Naumann
male,Maik,Ebersbach
male,Marko,Engel
male,Angelos,Lenters
male,Nander,Swart
male,Aytaç,Schilstra
male,Mingus,van Gisbergen
male,Markus,Bachmeier
male,Patrick,Weiss
female,Sophia,Sanger
male,Dirk,Cole
male,Florian,Meister
male,Maximilian,Eichmann
female,Ulrike,Schroder
male,Milano,de Wijs
male,Sayed,van der Schoor
male,Sebastian,Neudorf
male,Heimen,Kuipers
male,Thomas,Eiffel
male,Hobie,van Haastert
male,Stephan,Zimmerman
male,Youssef,de Crom
male,Luca,Werfel
male,Marco,Fassbinder
male,Willian,Hesen
male,Stefan,Thalberg
male,Hamid,Ibrahimi
male,Alexander,Metzger
male,Niklas,Glockner
male,Corbin,Slagter
male,Dré,Kortman
male,Dennis,Pabst
male,Romero,Teulings
male,Indra,Lebbink
male,Rino,Piket
male,Aaron,van Eeuwijk
male,Jörg,Jaeger
male,Franklin,Oonincx
male,Mannes,Both
male,Alexander,Trommler
male,Uwe,Nagel
male,Aram,Mekking
male,Matthias,Bumgarner
male,Lukas,Faerber
male,Michael,Wolf
male,Sebastian,Hoffmann
female,Kristin,Mauer
male,Aaron,Boom
female,Heike,Eichel
male,Daley,Gast
female,Anne-Floor,van den Muijsenberg
male,Almer,van der Zouwen
male,Marouan,Westerhout
male,Alexander,Eisenberg
male,Stephan,Schultz
male,Frank,Vogler
male,Maik,Boehm
male,Lukas,Huber
male,Frank,Wannemaker
male,Philipp,Kaestner
male,Tarık,Bolder
male,Lucas,Weissmuller
male,Eric,Gloeckner
male,Renier,van Goethem
male,Eric,Reinhardt
male,Torsten,Mertens
male,Job,Wesdorp
male,Lucius,Warringa
male,Sven,Traugott
male,Sven,Wechsler
male,Edson,Rommers
male,Kasper,Ahlers
male,Ralph,Unger
female,Dalila,van der Meijden
female,Djoeke,Bambacht
male,Tido,Last
male,Luca,Bayer
female,Arendje,Ultee
male,Nima,Brunink
male,Max,Papst
male,Daniel,Gottschalk
male,Nikola,Rosenboom
male,Soufiane,Quaedvlieg
male,Dimitris,Kil
male,Dirk,Biermann
male,Torsten,Dietrich
male,Jouke,Sener
male,Hero,van der Reijden
male,Jean,Vorstenbosch
female,Mandy,Fassbinder
female,Krystle,van Heel
male,Michael,Goldschmidt
male,Ewald,Lahaye
male,Eise,Honing
male,Florian,Holtzmann
male,Stephan,Klug
female,Manuela,Luft
male,Philipp,Lange
male,Dieter,Bergmann
male,Muzaffer,Soldaat
male,Austin,Oord
male,Benjamin,Furst
male,Bernd,Baer
male,Uwe,Schroeder
male,Oskar,Vlek
male,Onno,Brugmans
male,Djuri,Zoutman
male,Immanuel,Smans
female,Rosanna,Laanstra
male,Siem,Voorbraak
male,Eyüp,van Esveld
male,Wolfgang,Kastner
female,Jantine,Steinbusch
male,Lukas,Schroeder
male,Benito,Creemers
male,Phillipp,Eichmann
male,Reece,Toes
male,Martin,Mayer
female,Cyrelle,van Haren
male,Imko,Jellema
male,Alp,Ranzijn
male,Sven,Diederich
male,Polle,Poort
male,Kevin,Adler
female,Anisha,Brunink
female,Lisa,Abend
male,Okke,Kapitein
male,René,Mehler
male,Oğuz,Dirkx
male,Ewald,van Rijsewijk
male,Thomas,Wurfel
male,Marcio,Ruitenberg
male,Gerjon,Coenraad
male,Luca,Neudorf
male,Tom,Eberhart
male,Jared,Eroglu
male,Jozua,Wisselink
male,Lucas,Kortig
male,Robert,Gruenewald
male,Lukas,Vels
male,Kenley,van Bokhorst
male,Torsten,Vogler
male,Luca,Baier
male,Niklas,Müller
male,Alfredo,van der Kuijl
female,Callista,Oosterman
male,Uwe,Theissen
male,Matthias,Eiffel
male,Nanko,van Zanten
female,Siham,Korenhof
male,Stefan,Strauss
male,Tuna,Boekhout
male,Ulrich,Freitag
male,Martin,Schuhmacher
male,Florian,Fuerst
male,Kimo,Huberts
male,Wiggert,Valkering
male,Max,Bayer
male,Barış,Kouwenberg
male,Andreas,Rothstein
male,Paul,Drescher
male,Marko,Gottschalk
male,Christian,Schweitzer
male,Robert,Nussbaum
male,Marko,Glockner
male,Andreas,Moeller
male,Mike,Meyer
male,Ralf,Kuester
male,Tim,Kuster
male,Florian,Probst
male,Giliam,Wiersum
male,Bono,Rutjens
male,Wick,Savenije
male,Markus,Fink
male,Thimon,van Donselaar
male,Moustafa,Rijnen
male,Marcel,Koertig
male,Reinardus,Vergeer
female,Katja,Richter
male,Miro,Overgoor
male,Faas,Visscher
male,Alexander,Hahn
male,Dirk,Schwab
male,Wiecher,van Erp
male,Hans,Schiphorst
male,Sid,Reurink
female,Monisha,Gerssen
female,Mirella,Bleijenberg
male,Niklas,Bosch
male,Christian,Reinhardt
female,Anja,Koehler
male,Rogier,van Hulzen
male,Bareld,Meershoek
male,Jens,Schwartz
male,Jur,Dors
male,Cihat,Maassen
male,Dieter,Lehrer
male,Michele,Schumacher
male,Abdulkadir,Goulooze
male,Maik,Bachmeier
male,Paul,Foerster
male,Anco,Grootfaam
female,Aleksandra,Vlug
male,Kevin,Huber
male,Issa,Oost
female,Yenthe,Meeuws
male,Marco,Weber
male,Marko,Zweig
male,Sebastian,Keller
male,Ference,Bogaert
male,Kwame,Lodder
female,Sabine,Herman
male,Uwe,Fischer
male,Mauritius,Bloemert
male,Kristian,König
male,Antoon,Koop
male,Arvid,Overweel
male,Frank,Pfeiffer
male,Florian,Frei
male,Frank,Kalb
male,Gerbert,Velthuizen
male,Aernout,de Nooij
male,Giacomo,Groot
male,Erik,Eichmann
male,Bennet,van der Harst
male,Matthias,Waechter
male,Qasim,Meilink
male,Abdul,van der Weerden
male,Ewout,Nanninga
male,Luke,Overweel
male,Martin,Kohler
male,Erik,Baecker
female,Sandra,Himmel
male,Necati,Treep
male,Tijn,van Lochem
male,Louwe,Buizer
male,Jordey,Dekker
female,Franziska,Reinhard
male,Erol,Melse
female,Michelle,Peters
male,Willie,Eeken
male,Hessel,Lagarde
male,Torsten,Kaufmann
male,Peter,Richter
male,Lukas,Kluge
male,Mathias,Neustadt
male,Robert,Lang
male,Markus,Foerster
male,Reinard,Numan
female,Gina,Zoontjens
male,Erik,Bosch
male,Jan,Farber
male,Divano,Kamer
male,Lev,Metz
male,Mirko,Francken
male,Thomas,Schultz
male,Jur,Kerkhoff
male,Lucas,Abt
male,Walterus,Braakhekke
male,Max,Sankt
male,Quinten,van der Baan
male,Folkert,de Gast
male,Olivier,van de Coolwijk
male,Eric,Weiss
female,Claudia,Eichelberger
male,Sylvain,van Straalen
female,Mareike,Kralt
male,Alem,van Maarseveen
male,Wilco,Mol
male,Ralf,Herz
male,Jürgen,Junker
male,Eibert,Sterrenburg
male,Jamy,Reurink
male,Ton,Deijkers
male,Kin,Notermans
male,Jan,Maur
male,Kristian,Müller
male,Devrim,Schulte
male,Demis,Wijngaarde
male,Jörg,Probst
male,Jonas,Decker
male,Marco,Wannemaker
male,Luca,Luft
male,Marko,Eiffel
male,Kristian,Ebersbacher
female,Tamana,Min
male,Florian,Bieber
male,Lukas,Krueger
male,Niklas,Eisenhower
male,Yorik,Nijmeijer
male,Max,Meier
male,Lukas,Herzog
male,Wout,van der Vliet
male,Davie,Oude Luttikhuis
male,Tymo,van den Berge
male,Stefan,Bürger
male,Reduan,Pelt
male,Daniele,Sluimer
male,Marcel,Stavenuiter
male,Ralf,Furst
male,Lucas,Probst
male,David,Mahler
male,Mathys,Lievaart
male,Maik,Nussbaum
male,Nourdine,Brosens
male,Andreas,Konig
male,Jan,Vogt
male,Demiën,Valkenburg
male,Bernd,Frueh
male,Jörg,Sanger
male,Vikram,Olsman
male,Duke,van Brakel
male,Jan,Richter
male,Saleh,Broekhoff
male,Niklas,Slijkhuis
male,Lucas,Glockner
male,Asad,Bender
male,Luciën,Mientjes
male,Sven,Pabst
male,Imme,Baart
male,Andreas,Kuhn
male,Libaan,te Pas
male,Halbe,Yasar
male,Swen,Wexler
female,Lubna,Webers
male,Naoual,Brommer
male,Steffen,Foerster
male,Niklas,Krause
male,Siham,Kuypers
male,Huibert,Heil
male,Jens,Gärtner
male,Dio,Voorbraak
male,Matthias,Freitag
male,Houssam,Mantel
male,Ralph,Berg
male,Miloud,Coremans
male,Sjimmie,Overes
male,Tolga,Heeringa
female,Jorijn,Beijen
male,Hani,van Brussel
male,Swen,Hoover
male,Eyüp,van Putten
male,Jerzy,Krebbers
male,Max,Hertzog
male,Bodhi,Bannink
male,David,Schaefer
male,Mathias,Junker
male,Ralf,Neustadt
male,Michael,Koch
female,Nicole,Gloeckner
male,Zouhair,den Bakker
male,Martin,Egger
male,Calvin,van der Lubbe
male,Florian,Beckenbauer
male,Dieter,Gottschalk
male,Eros,Koolman
male,Harley,Alberti
female,Heike,Wirtz
male,Jens,Herz
male,René,Adler
male,Caspar,Boermans
male,Erik,Schroder
male,Swen,Gottschalk
male,Yorian,de Snoo
male,Cristiano,van der Galiën
male,Sibren,Verwaal
male,Florian,Fenstermacher
female,Mandy,Bieber
male,Tijl,Meter
male,Andreas,Gärtner
male,Marcus,Lucassen
male,Renger,van Zuijlen
male,Leon,Gottlieb
male,Frank,Faerber
male,Quoc,Akyüz
male,Anıl,Leutscher
male,Mario,Hoover
male,Marco,Fuchs
male,Jan,Nagel
male,Giedo,Charité
male,Bowen,Hazenoot
male,Thomas,Eichelberger
female,Heike,Bieber
female,Anneleen,Piet
male,Felix,Propst
female,Marina,Braun
male,Florian,Bader
male,Sven,Hoffmann
male,Django,Kastelein
male,Phillipp,Bieber
male,Benjamin,Pfeifer
male,Uĝur,van Egmond
male,Mikey,Cornelisse
male,Marcel,Propst
male,Erhan,Greveling
male,Thomas,Bauer
male,Steffen,Dresdner
male,Kristian,Ziegler
male,Anis,Zomers
male,Marcel,Gerste
male,Erik,Busch
male,Ilhan,Bernards
male,Silvan,Greijdanus
male,Florian,Frey
male,Mayk,de Werd
male,Aydin,Fischer
male,Uwe,Fuhrmann
male,Bernd,Koenig
male,Paul,Adler
male,Christian,Rothstein
male,Sebastian,Feierabend
male,Redwan,Vliek
male,Haico,Hessing
male,Benjamin,Mueller
female,Laura,Eberhart
male,Dwayne,Reijers
male,Jan,Fuhrmann
male,Dominik,Neumann
male,Maik,Holzman
male,Akin,van der Kruijs
male,Mustafa,Verdegaal
female,Ines,Zimmer
female,Marcha,Robbertsen
male,Sohail,Bastiaansen
male,Konrad,van Willigenburg
female,Kathrin,Schulze
male,Ference,van Riet
male,Daniel,Adler
male,Christian,Seiler
male,Luca,Beike
male,Bastian,Dikker
male,René,Hueber
male,Harry,van Oord
male,Lukas,Hirsch
male,Luca,Schmidt
male,Aalbert,Botter
male,Age,Steverink
male,Steffen,Schroeder
male,Jarnick,van der Schoot
male,Lucas,Herzog
male,Daniel,Austerlitz
male,Wolter,Hogenberg
male,Lucas,Feierabend
male,Sebastian,Gersten
male,Nikolas,van Zoest
male,Tim,Schulze
female,Bibiana,Veldman
male,Paul,Maur
male,Kyan,Graven
male,Dirk,Schulz
female,Doreen,Kohl
male,Thorsten,Foerster
male,Patrick,Eisenhower
male,Jop,Bronswijk
male,René,Roth
male,Frank,Baecker
male,Peter,Hartmann
male,Theo,Mastenbroek
male,Alpha,Vlemmings
male,Fredrik,van der Land
male,Jeremi,de Bruijne
male,Tim,Vogler
male,Marc,Koelman
male,Lukas,Scherer
female,Müzeyyen,Brobbel
male,Swen,Mueller
male,Dominik,Sanger
male,Mike,Schuhmacher
male,Emre,Corver
male,Tonnie,Nicolaas
male,Collin,van Alfen
male,Yonah,Elshof
female,Zühal,Walhout
male,Fabrice,van Duinkerken
female,Mèlanie,Laumen
male,Djayden,Ligthart
male,Sebastian,Biermann
male,Ramazan,Bruggeling
male,Lukas,Traugott
male,Maximilian,Dreher
female,Zehra,Hessing
male,Niklas,Sommer
male,Jonas,Kortig
male,Justen,Markus
female,Yvonne,Bach
male,Mathias,Hirsch
male,Vikram,Verhoog
male,Amerik,Hartmann
male,Dominik,Baier
male,Eric,Moench
male,Felix,Saenger
male,Dirk,Blau
male,Swen,Schreiner
male,Stefan,Gottschalk
male,Mike,Gaertner
male,Nenad,van Looij
male,Lucien,Zeelenberg
male,Robert,Baumgaertner
male,Rami,Gravemaker
male,Ulrich,Reinhardt
male,Jorit,Mahabier
male,Matthias,Sommer
male,Aniel,Brunink
male,Matthias,Hahn
male,Eric,Ebersbach
male,Devi,Beuving
male,Lucas,Keller
female,Mischa,Jonas
male,Lenny,Vergouwe
male,Marco,Bohm
male,Stefan,Konig
female,Diana,Ackerman
male,Ludovic,Oosterhuis
male,Mads,Roelvink
male,Ruben,Davidson
female,Sieuwke,Klever
male,Eric,Frueh
male,Marko,Faerber
male,Thomas,Schroder
male,Uwe,Bauer
male,Ralf,Kaestner
male,Adi,Groffen
male,Félix,Snoeks
male,Robert,Burger
male,Bernardo,Hagenbeek
female,Sharella,Doggen
male,Kristian,Gerste
male,Frank,Pfaff
male,Elgin,Ophuis
male,Erik,Freitag
male,Jonno,van Wingerden
male,Driek,ten Brink
male,Paul,Thalberg
male,Tobias,Wirtz
female,Sienna,Bruns
male,Wilbert,Elzinga
male,Jonas,Drescher
male,Stefan,Decker
male,Marcel,Oster
male,Uwe,Vogt
male,Reno,Oostvogels
male,Eric,Hueber
male,Marco,Vogler
male,Gijsbertus,Chiu
male,Fimme,de Bont
male,Robert,Bayer
male,Robert,Wagner
male,Max,Pfeifer
male,Bernd,Durr
male,Leo,van Ruiten
male,Thorsten,Moeller
male,Darcy,Storms
male,Tom,Zimmermann
male,Gillian,Coster
male,Philipp,Dresner
male,Phillipp,Schröder
male,Florian,Walter
male,Robert,Schultz
male,Jörg,Winkel
male,Declan,Verbeeten
male,Tos,van Ruitenbeek
male,Santino,Gouw
male,Romijn,Muis
male,Ralf,Fassbinder
male,Jippe,Hansma
female,Leonie,Kruger
male,Stefan,Abend
male,Justice,Fluit
male,Matias,Spekman
male,Thomas,Kaestner
male,Jürgen,Brauer
male,Phillipp,Wechsler
male,Luca,Luft
male,Frank,Faust
male,Randolf,Harpal
male,Oualid,Engbers
male,Dennis,Bürger
male,David,Zimmerman
male,Juno,van Haastert
male,Willem-Jan,van Gameren
male,Tom,Ziegler
male,Tex,Doldersum
male,Tamme,Fopma
male,Guy,van de Weg
male,Abdelrahman,van Valkenburg
male,Robert,Drechsler
male,Klaus,Kalb
male,Ulrich,Walter
female,Stefanie,Baumgaertner
female,Nahid,van den Boom
female,Emmeline,Heldens
male,Daniel,Urner
female,Sky,van Prooijen
female,Franziska,Meier
male,Tim,Ebersbacher
male,Cameron,El Morabit
female,Barbara,Nadel
male,Klaus,Faerber
male,Bobby,Brandjes
male,Ulrich,Gottlieb
male,Andreas,Fink
male,Nouri,Onrust
male,Paul,Foerster
male,Amos,Schep
male,Andreas,Fink
male,Peter,Schultz
male,Bernd,Austerlitz
male,Pierre,Verton
male,Lukas,Hahn
male,Ulrich,Zimmermann
male,Sebastian,Kuster
male,Thorsten,Gaertner
male,Mike,Baecker
male,Frank,Naumann
male,Tom,Hahn
male,Michael,Schmid
male,Gaby,Huijgens
male,Frank,Bauer
male,Thomas,Roth
male,Daniel,Schreiber
male,Jikke,Spit
female,Ilhame,Voorbraak
male,Kevin,Eisenhauer
male,Jens,Feierabend
male,Paul,Papst
male,Stephan,Ebersbacher
male,Max,Becker
female,Silke,Schultz
male,Quinten,Kok
male,Peter,Abt
male,Mathias,Bumgarner
male,Wolfgang,Traugott
male,Jens,Ackerman
female,Mijntje,van Kuilenburg
male,Joel,Haverkort
male,Mike,Cole
female,Melanie,Wexler
male,Steffen,Pfeifer
male,Gwen,van den Elzen
male,Cesar,Lagerwaard
male,Fabien,Offermans
male,Mike,Urner
male,Jörg,Reinhard
male,Thibaut,Ranzijn
male,Raoul,Vervelde
male,Emile,Yeung
male,Marco,Faerber
male,Lucas,Meuffels
male,Wolfgang,Dreher
male,Klaus,Herz
male,Lukas,Sanger
male,Fahad,Hendrikx
male,Ferdinandus,Kneppers
male,Bram,Conijn
male,Ulrich,Eberhart
male,Yosri,Duran
female,Jana,Weissmuller
male,Klaus,Pabst
male,Folkert,Heijs
male,Arris,Pieternella
male,Niklas,Propst
male,Klaus,Frueh
male,Rashied,Hein
male,Swen,Neustadt
male,Ishan,Beuk
male,Renée,Werleman
male,Niklas,Werfel
male,Maik,Traugott
male,Patrick,Schneider
male,Ralf,Barth
female,Annelore,Sijstermans
male,Frank,Maurer
female,Betty,Meijerhof
male,Wolfgang,Wannemaker
male,Kishan,van Loveren
male,Sebastian,Hirsch
male,Renzo,Rekker
male,Stephan,Hahn
male,Ynze,Deckers
male,Damiën,Broos
male,Dennis,Brauer
female,Anke,König
male,Sven,Schmitt
male,Sadik,Brookhuis
male,Felix,Fassbinder
female,Antje,Ebersbacher
male,Kristian,Schäfer
male,Mohsin,de Kuiper
male,Olav,Wansink
male,Stephan,Hoover
male,Florian,Wulf
male,Jonas,Faerber
male,René,Kuster
male,Abdelilah,Verhaar
male,Bruce,Evertse
male,Maik,Gruenewald
male,Uwe,Kaestner
male,Michael,Achen
male,Swen,Winkel
male,Ulrich,Metzger
male,Florian,Weissmuller
male,Max,Beich
female,Dounya,Eijsink
female,Claudia,Baum
male,Alexander,Hahn
male,Juup,van der Kloet
male,Hamit,Lammers
male,Harm,Hollestelle
male,Ulrich,Mauer
male,Thorsten,Frueh
male,Eric,Koertig
male,Markus,Müller
female,Michélle,Nagelhout
male,Batuhan,Westgeest
male,Cees,Lijzenga
male,Luca,Saenger
female,Marianne,Kees
male,Basten,Sweers
female,Sedef,Burggraaff
male,Jonas,Weiß
male,Thymen,Klarenbeek
male,Lesley,Mijnster
male,Benjamin,Papst
male,Klaus,Abendroth
male,Dirk,Kaestner
male,Waqas,Veenendaal
female,Lucinde,Korenhof
male,Christian,Scherer
female,Brigitte,Jaeger
male,Larry,Boss
male,Hashim,Paap
male,Krishan,van der Wiel
female,Klaudia,Vogt
male,Dieter,Fink
male,Min,Strootman
male,Steffen,Hertz
male,Erik,Brauer
male,Bashir,Wilmsen
male,Fernand,Heesen
male,Esat,Westera
male,Tommie,Gunsing
male,Helder,van Leuken
female,Lidian,Wijnstra
male,Edgar,van der Leeden
male,Dominik,Weisz
male,Walther,Veelenturf
male,Cris,Homan
male,Safouan,Swiers
male,Marcelino,Doornenbal
male,Jary,Dros
male,Uwe,Shuster
male,Kadir,Hulsegge
male,Thorsten,Schmidt
male,Aäron,Landheer
male,Florent,Laarman
male,Eric,Bergmann
male,Tom,Pfeifer
male,Lennert,Yeung
male,Eric,Krueger
male,Robert,Jaeger
male,Jonas,Moeller
male,Thorsten,Waechter
male,Justinus,Broeze
male,Jörg,Berg
male,Bernd,Foerster
male,Florian,Wexler
male,Christian,Fuchs
male,Ralf,Winkel
female,Katrin,Kastner
female,Lena,Bohm
female,Michelle,Gaertner
male,Amr,Naaktgeboren
male,Hakim,Markus
male,Miel,van de Lagemaat
male,Lukas,Mahler
male,Sebastian,Lehmann
male,Wolfgang,Kunze
male,Aschwin,Ambachtsheer
male,Wolfgang,Glockner
male,René,Gottschalk
male,Phillipp,Werfel
male,Tobias,Krueger
male,Shawn,de Witt
male,Zef,Fonteijn
male,Dillan,Wubben
male,Lucas,Schroeder
male,Jürgen,Weissmuller
male,Lucas,Freeh
male,Janwillem,Hilgers
male,Martin,Kalb
male,Bente,van der Maat
male,Kristian,Zweig
female,Sien,van Baarsen
male,Henrie,Bex
female,Bettina,van de Rijdt
male,Jaap-Jan,Verveer
male,Fikret,van Hout
male,Rien,Limmen
male,Michael,Faust
male,Klaus,Herzog
male,Florian,Kappel
male,Fadil,van Loosbroek
male,Jürgen,Wechsler
male,Kristian,Adler
male,Nander,Bergenhenegouwen
male,Birol,Snoek
male,Christian,Waechter
male,Jens,Sankt
male,Ramazan,Broeks
female,Ulrike,Adler
male,Howard,Vugs
male,Max,Weissmuller
female,Juliane,Propst
male,Laurent,van der Most
male,Christian,Krueger
male,Mattis,Mikkers
male,Jefrey,Hakkert
male,Torsten,Eggers
male,Tobias,Pfeffer
male,Sape,Roessink
male,Faruk,Andriessen
male,Paul,Bumgarner
male,Ihab,Thijs
male,Maximiliaan,Vroemen
male,Daniel,Austerlitz
male,Bernd,Schweitzer
male,Steffan,Meeusen
male,Bahri,Boes
male,Klaus,Abendroth
male,Christoph,Bach
male,Jonas,Neustadt
male,Bernd,Maur
female,Ariadne,Zaal
male,Frank,Metzger
male,Luca,Keller
male,Akaash,Braspenning
male,Mario,Glockner
female,Manisha,Langevoort
male,Christian,Schmitz
male,Hussain,Batist
male,Rinze,Jeukens
male,Mathias,Kaestner
male,Obed,Hazen
female,Bloeme,van Hedel
male,Rocky,van Gaal
male,Elmar,Delfos
male,Guilliano,van Wijnbergen
male,Eric,Wexler
male,Stephan,Beyer
male,Mathias,Vogt
male,Adjai,Hellings
male,Zafer,Straatsma
male,Alexander,Sankt
male,Jan,Brauer
female,Feride,Vedder
male,Torsten,Fleischer
male,Felix,Adler
male,Rohan,van Brakel
male,Tibo,Wagenvoort
male,Markus,Gerber
male,Saleh,Jasperse
male,Reinier,Pieper
female,Magali,Christiaans
male,Ilyaas,Roeleveld
male,Niklas,Schröder
male,Maik,Ehrlichmann
male,Emil,Fennema
male,Max,Schwarz
male,Leon,Himmel
male,Marcel,Neumann
male,Benjamin,Fassbinder
male,Nolan,van der Aart
male,Mario,Ackermann
male,Rudie,Beekelaar
male,Felix,Wevers
male,Swen,Hofmann
male,Sebastian,Daecher
male,Hendrikus,de Kruijf
male,Quin,Linker
male,Tahsin,den Hartigh
male,Jörgen,Scholing
male,Dennis,Huber
male,Steffen,Holtzmann
male,Dustin,Oosterbaan
male,Marinus,Bijvank
male,Boy,van Eck
male,Mas,Bons
male,Duco,van Meijel
male,Dimitris,van den Bos
male,Jörg,Weiss
male,Simcha,Klap
male,Peter,Baum
male,Nawfal,Weiland
male,El,Monshouwer
male,Erik,Kuhn
male,Thomas,Lang
male,Ruurd,Bens
male,Ulrich,Frei
male,Daniel,van Willegen
male,Thomas,Herrmann
male,Harold,Wierstra
male,Fahri,Lokerse
female,Jayne,Klinkert
male,Aimane,Verwegen
male,Resul,Gout
male,Youri,Hansen
male,Thorsten,Reinhard
male,Steffen,Fried
male,Markus,Wechsler
male,Aidan,van der Rijst
male,Anouar,Beerendonk
female,Michelle,Barth
male,Patrick,Berg
male,Nasir,van Verseveld
male,Ferdy,Stoof
male,Michael,Ackerman
male,Tim,Neumann
male,Aïmane,Heijblom
male,Thorsten,Ehrlichmann
male,Dylan,Martina
female,Andrea,Beckenbauer
male,Teus,Kortleve
female,Chemène,Tunç
male,Felix,Nagel
male,Davut,Pastoors
male,Andréas,Walinga
male,Nander,Tempel
male,Lucas,Shuster
female,Kajol,van der Maas
male,Konstantinos,Rojer
male,Bernd,Boehm
male,Abdelrahman,Schram
male,Tjitse,Rozeboom
male,Regilio,Abraham
male,Tjark,Okhuijsen
male,Cian,Kiel
male,Lucas,Cole
male,Tim,Fiedler
male,Wolfgang,Saenger
male,Phillipp,Austerlitz
male,Jens,Lang
female,Alinde,Taal
male,Phillipp,Aachen
female,Fabiën,Kingma
male,Leandro,Borger
male,Gwen,Kamstra
male,Jonas,Pfeifer
male,Marcel,Feierabend
male,Mathias,Sommer
male,Maik,Frey
male,Mathias,Friedmann
male,Ulrich,Krüger
male,Markus,Rothschild
male,Dimitris,Bambacht
male,Michael,Trommler
male,Mathis,Visschers
male,Tobi,Degens
male,Quintus,Cuppen
male,René,Jaeger
female,Stefanie,Furst
male,Jürgen,Beyer
female,Petra,Wexler
male,Martien,Steijns
male,Rahman,Knaapen
male,Jonas,Faber
male,Wiljan,Godding
male,Jamiro,Louwe
male,Borre,Komduur
male,Jurrien,van Galen
male,Wassim,van Campen
male,Wolfgang,Bach
male,Lucas,Beike
male,Deacon,van Straten
female,Yvonne,Freud
male,Giel,Bekhuis
female,Katrin,Baum
male,Max,Loewe
female,Mèlanie,Bogaard
male,Yorn,van den Boogaart
male,Jürgen,Zimmerman
female,Uta,Hoffmann
male,Curtis,Saris
male,Ferdi,Remmerswaal
male,Dieter,Bosch
female,Simone,Himmel
male,Rembrandt,Voskuilen
male,Yvar,Harskamp
male,Jürgen,Mehler
male,Jelmar,Kros
male,Oeds,Terol
male,Hani,Cameron
male,Redouan,Salomons
male,Peter,Klein
male,Rayvano,de Louw
male,David,Meier
female,Yoshi,Havermans
male,Erik,Beckenbauer
male,Tobias,Roth
male,Lucas,Schwartz
male,Ilker,Kooper
female,Franziska,Vogt
male,Seb,Goverde
male,Andrea,Krom
male,Dennis,Schmid
male,Maik,Scholz
male,Vincenzo,van Kekem
female,Manuela,Roth
male,Humphrey,Ahmadi
male,Maik,Kalb
male,Uwe,Kirsch
male,Djayden,Lapré
male,Lucas,Cole
male,Ralph,Feierabend
male,Markus,Theissen
male,Lucas,Mehler
male,Ihab,Brink
male,Juriaan,Scheper
male,Özhan,Zonneveld
male,Christof,Lambers
male,Desley,Bruijn
male,Miloš,America
female,Jordan,Kastermans
male,Martin,Fiedler
male,Davin,Krans
male,Mathias,Wolf
female,Katrien,Besten
male,Dominik,Walter
male,Melle,Saris
male,Markus,Kappel
male,Robert,Fuchs
male,Paul,Berg
male,Michael,Saenger
male,Marco,Kastner
female,Petra,Naumann
male,Mario,Wirth
male,Lukas,Unger
male,Jan,Schuster
male,Norbertus,Borneman
male,Thomas,Herman
female,Nadine,Wannemaker
male,Phillipp,Wirtz
male,Adrianus,Coster
male,Florian,Loewe
male,Stefan,Bumgarner
male,Hayri,Voesten
male,Zeb,Pellikaan
male,Robert,Möller
male,Jorin,van Rooij
male,Sebastian,Schwarz
male,Jonas,Kohler
male,Bahadir,de Vos
male,Boi,Vlieger
male,Swen,Kohler
male,Marco,Propst
male,Olger,Bas
male,Gianno,van Bijnen
female,Annett,Metzger
male,Bill,Flokstra
male,Petter,Trouw
male,Kristian,Frueh
male,Benjamin,Eisenhower
male,Emrah,Rosenboom
male,Rhys,de Boom
male,Philipp,Kirsch
male,Matthias,Möller
male,Raman,Kiliç
male,Tobias,Bergmann
female,Kristin,Richter
male,Jelte,Boog
male,Matthias,Winkel
male,Menko,Koets
male,Badreddine,Spruit
female,Cato,de Krom
male,Niklas,Junker
male,Bernd,Egger
male,Sebastian,Finkel
male,Philipp,Baumgaertner
male,Leon,Ritter
male,Jürgen,Eichmann
male,Frank,Zimmerman
male,Yoëll,Veldwijk
male,Kristian,Fiedler
female,Anna,Waechter
male,Marko,Huber
male,Jan,Sanger
male,Maik,Maur
male,Erik,Fruehauf
male,Christianus,Schoone
male,René,Eggers
male,Stefan,Sommer
male,Kenrick,Gierveld
female,Noreen,Buning
male,Masoud,ter Heide
male,Clinton,van Lambalgen
male,Robert,Schaefer
female,Susanne,Fenstermacher
male,Stefan,Weber
female,Jaike,Pouls
male,Eric,Fuerst
male,Jaymie,Grootenboer
male,Shahid,Maris
male,Mauritius,Kennis
male,Thomas,Meister
male,Vahid,Adriaansen
male,Troy,Barendrecht
male,Benno,van Alem
male,Benjamin,Huber
male,Matthias,Fuchs
male,Mans,Leenen
male,Henry,Walraven
male,Hussain,den Hartigh
male,Gianluca,Joosse
male,Barthold,van de Velde
male,Mario,Osterhagen
male,Aarnout,Bode
male,Nidal,Maathuis
female,Doreen,Abt
male,Daniele,Offermans
male,Lammert,Louwes
male,Perry,Ceylan
male,Ulrich,Weissmuller
male,Thomas,Schreiner
male,Leon,Werfel
male,Leon,König
male,Paul,Schreiner
male,Kaoutar,Niemeijer
male,Dieter,Krüger
male,Ka,de Pooter
male,Juriaan,Mattijssen
male,Tim,Eggers
male,Thies,Looijen
male,Thomas,Nadel
male,Christian,Osterhagen
male,Louis,Soetendaal
male,Nando,Kools
male,Abdel,Nusselder
male,Luut,Luinge
male,Ralph,Jaeger
male,Berrie,Bontje
male,Helmich,Laman
male,Matts,Kloos
male,Lukas,Friedman
male,Gustav,Starmans
male,Kees-Jan,Wientjes
male,Dirk,Roth
male,Suleman,Verdegaal
male,Andreas,Brauer
female,Ines,Frankfurter
male,Timoteus,Lans
male,Jerome,Bijnen
male,Ed,van Doorne
female,Dudu,Veltmaat
male,Marco,Baumgaertner
male,Ismaïl,Garretsen
male,Mathias,Schröder
male,Elvin,Kolff
male,Younes,van den Oudenalder
male,Emanuel,van Nimwegen
male,Niklas,Schreiner
male,Marcellino,Vijgen
male,Sayed,van Seventer
male,Spike,Raatjes
male,Mikail,van Eeden
male,Mathias,Oster
male,Willard,van Thiel
male,Soulaiman,Goes
male,Mick,Snoep
male,Stefan,Möller
male,Thomas,Peters
male,Toon,Datema
male,Florian,Gruenewald
female,Noreen,Hermsen
male,Fahrettin,Waardenburg
male,Bente,Oehlers
male,Cuma,Hofmans
male,Frank,Pfeifer
male,Thomas,Weber
male,Gus,Leen
male,Souhail,Winters
male,Torsten,Papst
male,Dyami,Westerman
male,Sebastian,Lehmann
male,Bernd,Lang
male,Maik,Grunewald
male,Arsenio,Flier
male,Daniel,Schwarz
male,Michel,Bouwmans
male,Haye,Noordhoek
male,Adham,Ottema
male,Yosef,van Winden
male,Germen,Akker
male,Camiel,Wilms
male,Harley,Nelemans
male,Gidion,Klip
male,Rashied,Pierik
male,Feiko,Withagen
male,Dirk-Jan,Dam
male,Guus,Nijssen
male,Branko,van Burik
male,Max,Amsel
male,Joos,Pieterse
male,Jarne,Koks
male,Gerjan,van Hedel
male,Mirza,Er
male,Ilhan,Romein
male,Dirk,Herz
female,Christine,Wirth
male,Thieme,Schriemer
male,Wybe,Theeuwes
male,Thomas,Hueber
male,Philipp,Berg
male,Markus,Koenig
male,Frank,Fiedler
male,Sven,Brauer
male,Thomas,Drechsler
male,Denley,den Butter
female,Barbara,Richter
male,Martin,Fruehauf
male,Bailey,Blik
male,Michał,Kollen
male,Sunny,Bottenberg
male,Florian,Maurer
male,Gökhan,Theunisse
male,Pim,Kamman
male,Juri,Weghorst
male,Akash,Mosterd
male,Eric,Scholz
male,Kristian,Metzger
male,Vincenzo,Rotman
male,Stefan,Kuhn
male,Firas,Mantel
male,Felix,Pfeifer
male,Cornelius,van Wageningen
female,Barbara,Grunewald
male,Jurick,Kamphorst
female,Ursula,Koch
male,Max,Sankt
male,Ralph,Seiler
male,Thorsten,Fisher
male,Torsten,Eggers
male,Max,Bayer
male,Huibertus,Elling
male,Tom,Berg
male,Max,Konig
male,Peter,Vogel
male,Markus,Traugott
male,Robert,Biermann
male,Wikash,van Cranenbroek
male,Riccardo,ter Heide
male,Ashwan,Boorsma
female,Daniela,Junker
male,Nash,Pluimers
male,Max,Neustadt
male,Kenny,Knipping
male,Niklas,Bohm
male,Alfonso,Sauer
male,Sebastien,Hardy
male,Sjimmie,Wilhelmus
male,Vahid,Kingma
male,Lokman,Heuvelink
male,Dirk,Meister
male,Maximilian,Himmel
female,Alissia,van Heck
male,Tom,Finkel
male,Torsten,Abt
male,Nieck,El Azzouzi
male,Marcel,Lowe
male,Marcel,Burger
male,Dennis,Frueh
male,Jolan,Bours
male,Yaron,Oostveen
female,Delphine,van Boven
male,Hajar,van Deuveren
male,Lucien,van den Boogert
male,Jan,Baumgaertner
male,Hendericus,van Lanen
male,Renaldo,van Zijp
male,Ries,Leeflang
male,Stefan,Fried
male,André,van Wilgenburg
male,Jesaja,Nijsen
male,Jan,Ackermann
male,Sjon,van Leer
male,Ralph,Shuster
male,Tobias,Fuerst
male,Frank,Baer
male,Mathias,Bohm
male,Miloš,Sijtsma
male,Mathias,Gärtner
male,Stephan,Kalb
male,Jun,van Diest
male,Benjamin,Aachen
male,Markus,Hartmann
male,Tunahan,Verdouw
male,Tristan,Oosting
male,Mickael,Robbertsen
female,Sara,Dreher
male,Sayfeddine,Wessel
male,Edu,Koenis
male,Yair,van der Veeken
male,Naud,Wester
male,Jullian,Oosterhuis
male,Haye,van Boxtel
female,Nadine,Neudorf
male,Hanad,Buys
male,Roeland,Verdouw
male,Ivanildo,Baptist
male,Lucas,Dreher
male,Sebastian,Neudorf
male,Thorsten,Pfeifer
male,Thorsten,Bosch
male,Jauke,van Stuijvenberg
male,Klaus,Baader
female,Sophia,Saenger
male,Siham,van Dalen
male,Ceylan,Hertog
male,Daniel,Moench
male,Dirk,Holzman
male,Maik,Faerber
female,Sheranie,Steehouwer
male,Ralf,Baumgaertner
male,Tom,Klug
male,Florian,Fischer
male,Andreas,Ebersbach
male,Dario,Houtenbos
male,Catharinus,Masselink
male,Laurentius,Mesu
male,Christian,Braun
male,Swen,Cole
male,Stefan,Kaufmann
male,Haije,Sanderse
male,Abdulahi,Broeze
male,Michel,Roosenboom
male,Cihad,Balkenende
male,Uwe,Moench
male,Veron,van Weelden
male,Yannic,Degen
male,Adriaan,Maurits
male,Akram,Crielaard
male,Jürgen,Jung
male,Lukas,Muller
male,Benno,van Gendt
female,Anja,Barth
male,Abubakar,Winkelman
male,Dieter,Wirtz
male,Michael,Unger
male,Patrick,Hartmann
male,Jan,Scholz
male,Marco,Eberhart
female,Silke,Theissen
male,Mauritz,van de Sluis
male,Mees,Linthorst
male,Jürgen,Eggers
male,Sven,Koch
male,Steffen,Kohl
male,Mark,Braat
female,Sophia,Maier
male,Kristian,Austerlitz
