﻿Gender,GivenName,Surname
male,Nuka,Heilmann
male,Sigurður,Böðvarsson
male,Percy,Pálmarsson
male,Jan,Jørgensen
male,Viðar,Ludwigsson
male,Erik,Abelsen
male,Erik,Lange
male,Matthías,Þorvarðarson
male,Johannes,Frederiksen
male,Lars,Møller
female,Emilía,Vilhjálmsdóttir
male,Minik,Sandgreen
male,Gunnar,Ástvaldsson
male,Poul,Frederiksen
male,Arngrímur,Auðunsson
male,Jakob,Fleischer
male,Steinn,Hólmgeirsson
male,Aputsiaq,Frederiksen
male,Frímann,Axelsson
male,Ingimar,Sigurðarson
male,Johannes,Lynge
male,Sigurbjörn,Gottskálksson
male,Erik,Johansen
male,Aputsiaq,Christensen
male,Páll,Viðarsson
male,Elvar,Friðriksson
female,Katrine,Egede
male,Steindór,Bárðarson
male,Sigurður,Halldórsson
male,John,Filemonsen
male,Otto,Kristensen
male,Dagfinnur,Arnbjarnarson
female,Bára,Skúladóttir
male,Jónatan,Úlfarsson
male,Aðalbjörn,Felixson
male,Ingvi,Kristófersson
male,Sölvi,Héðinsson
male,Hans,Úlfarsson
male,Kári,Guðsteinsson
male,Frederik,Filemonsen
male,Martin,Johansen
male,Arngrímur,Sigfinnsson
male,Ólafur,Friðjónsson
male,Ludvig,Zeeb
male,Stephan,Elisson
male,Friðþjófur,Sigurþórsson
male,Peter,Knudsen
female,Johanne,Heilmann
male,Ívar,Vilhelmsson
male,Arne,Lynge
male,Sveinbjörn,Ástvaldsson
female,Þórhalla,Ívarsdóttir
male,Davíð,Sævarsson
male,David,Egede
male,Andreas,Sørensen
male,Bergvin,Ingvarsson
male,Mathias,Fleischer
male,Michael,Rasmussen
male,Søren,Tobiassen
male,Nikolaj,Brandt
male,Mikael,Pedersen
male,Vilhjálmur,Baldursson
male,Örvar,Bachmann
male,Kim,Nielsen
male,Pavia,Poulsen
male,Arne,Lange
male,Kristian,Sørensen
male,Niels,Lennert
male,Sigmar,Bárðarson
male,Pavia,Lynge
male,Minik,Tobiassen
male,Hilmir,Sigurfinnsson
female,Gríma,Níelsdóttir
male,Þórir,Sumarliðason
male,Egill,Hannesson
male,Margeir,Halldórsson
male,Marina,Bjargmundsson
male,Svavar,Guðmundarson
male,Knud,Frederiksen
male,Nuka,Hansen
male,Diðrik,Steindórsson
male,Klængur,Hallbjörnsson
male,Hans,Filemonsen
male,Jørgen,Sørensen
male,Indriði,Erlendsson
male,Sigurjón,Georgsson
male,Johan,Lynge
male,Gunnar,Elísson
male,Tobias,Filemonsen
male,Steindór,Hermanníusson
male,Jóhann,Brynjarsson
male,Baldur,Heimisson
female,Rannveig,Ólafsdóttir
female,Regine,Johansen
male,Áslákur,Rögnvaldsson
male,Hallur,Friðvinsson
male,Stígur,Símonarson
male,Adam,Guðbjörnsson
male,Mikael,Abelsen
male,Kristian,Zeeb
male,Marius,Rasmussen
male,Tobias,Petrussen
male,John,Berthelsen
male,Björgvin,Matthíasson
female,Svanhvít,Pálmadóttir
male,Frederik,Petersen
male,Elís,Thordarson
female,Hansine,Lennert
female,Kathrine,Sørensen
male,Jóhann,Hjálmarsson
male,Jakob,Johansen
male,Hans,Møller
male,Andreas,Nielsen
female,Bergljót,Arnórsdóttir
male,Jonas,Kristiansen
male,Búi,Ásmundsson
male,Oddur,Tómasson
male,Kristinn,Kristjánsson
male,Unnar,Viktorsson
male,Geirfinnur,Ingibergsson
male,Henrik,Fleischer
male,Hans,Kristensen
male,Inunnguaq,Broberg
female,Sigurborg,Hallgrímsdóttir
male,Vilbergur,Þóreyjarson
male,Sigmundur,Þorláksson
male,David,Johansen
male,Nuka,Lyberth
male,Arnór,Friðfinnsson
male,Martin,Løvstrøm
male,Jens,Heilmann
male,Svend,Knudsen
female,Julie,Rosing
male,Hlynur,Snæbjörnsson
male,Viktor,Adolfsson
male,Rhoda,Sigurfinnsson
male,Isak,Broberg
male,Elís,Írisarson
male,Inunnguaq,Isaksen
male,Hans,Jensen
female,Eyrún,Runólfsdóttir
male,Søren,Christensen
male,Benedikt,Borgarsson
male,Erik,Johansen
male,Mikael,Christensen
male,Otto,Jørgensen
male,Bjarni,Arnfinnsson
female,Dúfa,Kristbjörnsdóttir
male,John,Kleist
male,Knud,Davidsen
male,Þorgrímur,Bjarnason
male,Arne,Egede
male,Áki,Matthíasson
female,Cecilie,Rosing
male,Böðvar,Samúelsson
male,Erlingur,Jónsson
male,Stefanía,Ósvaldsson
female,Marta,Bernódusdóttir
female,Silja,Valberg
male,Örvar,Jónatansson
male,Rasmus,Filemonsen
male,Jónas,Karlsson
male,Miki,Lyberth
male,Sölvi,Elisson
male,Valur,Jósefsson
male,Andrés,Þórsson
male,Arnaldur,Árnason
male,Kristian,Larsen
male,Jens,Lange
female,Petrine,Broberg
male,Kristján,Haraldsson
male,Arne,Lundblad
male,Isak,Olsen
male,Minik,Lundblad
male,Indriði,Elíasson
female,Anna,Josefsen
male,Karl,Mathiassen
male,Jakob,Jóelsson
male,Ágúst,Alfreðsson
male,Mikael,Lundblad
male,Hans,Brandt
male,Róbert,Guðlaugsson
male,Baldur,Vernharðsson
male,Hinrik,Sigurbjörnsson
male,Scheving,Reynaldsson
male,Baldur,Hafþórsson
male,Nikolaj,Jeremiassen
male,Sæmundur,Jónsson
male,Kristófer,Ísidórsson
male,Daniel,Lange
male,Anders,Lyberth
male,Svend,Lyberth
male,Rasmus,Jørgensen
male,Logi,Helgason
female,Ellý,Sigtryggsdóttir
male,Jónmundur,Frímannsson
male,Veturliði,Lýðsson
male,Niels,Berthelsen
male,Miki,Knudsen
male,Hjörleifur,Marinósson
male,Hólmar,Valdimarsson
male,Poul,Larsen
male,Nikolaj,Geisler
male,Rafn,Gústavsson
male,Marius,Mathiassen
male,Sigurþór,Hjaltason
male,Ingimundur,Björgmundsson
male,Isak,Davidsen
male,Jakob,Kleist
male,Frederik,Mathiassen
male,Helgi,Hreinsson
female,Matthildur,Þráinsdóttir
male,Inunnguaq,Karlsen
male,Jonas,Johansen
female,Bryndís,Angantýsdóttir
male,Lars,Hansen
male,Fannberg,Teitsson
male,Søren,Lennert
female,Gunnhildur,Níelsdóttir
male,Peter,Andersen
male,Sigursteinn,Auðbjörnsson
male,Sigurbjörn,Vilhelmsson
male,Edvard,Rasmussen
female,Karoline,Karlsen
male,Birgir,Kristjánsson
male,Niels,Mathiassen
male,Viðar,Guðfinnsson
female,Matthildur,Aðalbjörnsdóttir
male,Stephan,Sumarliðason
male,Jan,Johansen
male,Guðfinnur,Guttormsson
male,Gunnlaugur,Heimisson
male,Snorri,Lýðsson
male,Edvard,Sandgreen
male,Erik,Johansen
male,Jonas,Kleist
male,Inunnguaq,Lyberth
male,Sólveig,Guðrúnarson
male,Hrafnkell,Zóphoníasson
male,Guðbrandur,Viktorsson
male,Stefán,Gústafsson
male,Karl,Lyberth
male,Jakob,Abelsen
male,Hinrik,Jörundsson
male,Knud,Løvstrøm
female,Freydís,Valbergsdóttir
male,Daníel,Sörensen
male,Niels,Sørensen
male,Karl,Josefsen
male,David,Jensen
male,Martin,Lyberth
male,Michael,Kleist
male,Svanbjörn,Þórlaugarson
male,Erlendur,Svanbergsson
male,Nuka,Zeeb
male,Johan,Brandt
male,Otto,Lennert
male,Halldór,Hreiðarsson
male,Kim,Fleischer
male,David,Broberg
male,Jørgen,Lyberth
male,Erik,Kristiansen
male,Hallsteinn,Sigfússon
male,Gils,Albertsson
male,Nikulás,Hlöðversson
male,Gísli,Márusson
female,Bolethe,Jeremiassen
male,Friðgeir,Tryggvason
male,Örvar,Hallsteinsson
male,Aputsiaq,Berthelsen
male,Jonas,Heilmann
male,Lars,Sandgreen
female,Hilda,Ásgeirsdóttir
male,Jørgen,Knudsen
male,Jørgen,Josefsen
male,Aputsiaq,Geisler
male,Bjarni,Eðvaldsson
female,Pála,Hallmundsdóttir
male,Thomas,Kreutzmann
male,Jakob,Kristensen
male,Mikael,Nielsen
male,Heimir,Þorgeirsson
male,Jónmundur,Lúðvíksson
male,Inunnguaq,Isaksen
male,Pálmi,Elísson
male,Steindór,Þorbergsson
male,Mathias,Tobiassen
male,David,Heilmann
male,Björgvin,Markússon
male,Tryggvi,Þórarinsson
male,Frederik,Petrussen
male,Ilona,Eðvaldsson
male,Ole,Broberg
female,Stella,Haraldsdóttir
male,Pétur,Þorláksson
male,Stephan,Ívarsson
male,Johannes,Josefsen
male,Rafn,Hafþórsson
male,Kim,Rosing
male,Guðgeir,Björgmundsson
male,Hans,Olsen
male,Smári,Garðarsson
male,John,Egede
male,Kim,Hannesson
female,Oline,Jørgensen
male,Lars,Løvstrøm
male,Frederik,Geisler
male,Nikulás,Úlfarsson
male,Bergþór,Jensson
male,Hjálmar,Pétursson
male,Jens,Isaksen
male,Eyjólfur,Frímannsson
male,Ludvig,Sørensen
male,Sigurmann,Bjargmundsson
male,Baldvin,Guðbjörnsson
male,Mikael,Løvstrøm
male,Frederik,Lyberth
male,Steindór,Ingimundarson
male,Jørgen,Brandt
male,Miki,Larsen
male,Hlynur,Ámundason
male,Johan,Larsen
female,Marie,Sandgreen
male,Þormar,Einarsson
male,Edvard,Abelsen
female,Árvök,Jóhannesdóttir
male,Friðberg,Ásgrímsson
male,Dagur,Ómarsson
male,Tobias,Pedersen
male,Svanbjörn,Hjaltason
female,Guðleif,Óðinsdóttir
male,Hákon,Svanbergsson
male,Aðalsteinn,Viggósson
male,Þórðr,Árnþórsson
male,Per,Kristensen
male,Nikolaj,Petrussen
male,John,Poulsen
male,Dagur,Þórisson
male,Hinrik,Víglundsson
male,Henrik,Poulsen
male,Knud,Sandgreen
male,David,Jeremiassen
male,Þórðr,Rósmundsson
male,Eysteinn,Þorgeirsson
male,Niels,Mikaelsen
female,Kristine,Mikaelsen
male,Héðinn,Vernharðsson
male,Michael,Berthelsen
male,Hólmar,Þóroddsson
male,Erik,Petrussen
male,Finnbogi,Guðmundsson
male,Ludvig,Lyberth
male,Kristmann,Guðbergsson
male,Lars,Rosing
female,Sofie,Sørensen
male,Skarphéðinn,Runólfsson
male,Klængur,Friðgeirsson
male,Minik,Petrussen
male,Davíð,Sigurbjörnsson
male,Erik,Mikaelsen
male,Minik,Filemonsen
male,Valgeir,Gissurarson
male,Baldur,Þórhallsson
male,Arne,Sandgreen
male,Thomas,Petersen
male,Jakob,Jeremiassen
female,Frederikke,Heilmann
male,Hjálmar,Theodórsson
male,Þormar,Matthíasson
male,Vilbergur,Jóelsson
male,Andrés,Sumarliðason
male,Haukur,Hannesson
male,Sigmar,Símonarson
male,Danival,Ögmundsson
male,Pavia,Kristensen
male,Pavia,Filemonsen
male,Jørgen,Jørgensen
male,Marius,Knudsen
male,Nuka,Mathiassen
male,Knud,Jeremiassen
male,Thomas,Løvstrøm
male,Ludvig,Josefsen
male,Hinrik,Daníelsson
male,Inunnguaq,Møller
male,Hjörtur,Baldvinsson
male,Henrik,Kristensen
male,Anders,Jørgensen
male,Ole,Lyberth
female,Arna,Gísladóttir
male,Hjálmar,Ársælsson
male,Aðalbjörn,Antonsson
male,Isak,Olsen
male,Þórbergur,Ólason
male,Aron,Lýðsson
male,Þormar,Þorleifsson
male,Hugi,Ottósson
female,Maren,Kreutzmann
male,Jan,Josefsen
male,Runólfur,Arnþórsson
male,Jakob,Løvstrøm
male,Björgólfur,Tómasson
male,Ásgeir,Hildisson
female,Bergljót,Marinósdóttir
male,Danival,Guðmundsson
male,Björn,Arnoldsson
male,Eggert,Jónasson
male,Hans,Karlsen
male,Jørgen,Fleischer
male,Marius,Josefsen
male,Peter,Lynge
male,Hallgrímur,Ásgeirsson
male,Sverrir,Sigursteinsson
male,Gestur,Rafnsson
male,Friðrik,Björgmundsson
male,Anders,Enoksen
male,Arnþór,Ingimundarson
male,Marius,Johansen
male,Markús,Borgþórsson
male,Peter,Petersen
male,Inunnguaq,Lyberth
male,Ásgeir,Bjarnarsonar
male,Arne,Petersen
male,Poul,Lennert
male,Henrik,Kreutzmann
male,Ole,Poulsen
male,Stefanía,Hrafnkelsson
male,Valgeir,Bjargmundsson
male,Hólmar,Yngvason
male,Pavia,Jakobsen
male,Johan,Zeeb
male,Ríkharður,Kristófersson
female,Kirsten,Rosing
male,Andri,Arnarsson
male,Karl,Sandgreen
male,Sævar,Ásmundarson
male,Søren,Lange
male,Jonas,Zeeb
male,Þórðr,Þórisson
male,Bergþór,Skjaldarson
female,Kristine,Petersen
male,Nikulás,Hálfdánarson
male,Sigurþór,Theodórsson
male,Ásgeir,Þorgilsson
male,Svend,Lennert
male,Ludvig,Josefsen
female,Þorgerður,Bragadóttir
male,Johan,Frederiksen
male,Aputsiaq,Lyberth
female,Dorthe,Kreutzmann
male,Per,Tobiassen
female,Regine,Løvstrøm
male,Sighvatur,Jónatansson
male,Svanur,Marinósson
male,Nuka,Andersen
male,Aðalgeir,Oddgeirsson
male,Isak,Lyberth
male,Tobias,Rosing
male,Rasmus,Jeremiassen
male,Svend,Andersen
male,Jakob,Johansen
male,Sighvatur,Valdemarsson
male,Vilhjálmur,Sigursteinsson
male,Guðgeir,Jensson
female,Hansína,Guðgeirsdóttir
male,Björgúlfur,Sigfinnsson
male,Rasmus,Jakobsen
male,Otto,Mathiassen
male,Gerth,Larsen
male,Bernharð,Steinþórsson
male,Hjalti,Gylfason
male,Jakob,Jeremiassen
male,Kim,Lange
male,Kim,Johansen
female,Oddrún,Eiríksdóttir
male,Peter,Josefsen
male,Minik,Enoksen
male,Árni,Stefánsson
female,Elva,Kristinsdóttir
male,Gunnsteinn,Ástráðsson
male,Erik,Brandt
male,Jørgen,Poulsen
male,Knud,Løvstrøm
male,Hartmann,Hafsteinsson
male,Eiríkur,Sigbjörnsson
male,Þórir,Jónasson
male,Mathias,Geisler
male,Hjalti,Sigursteinsson
female,Júlíana,Skúladóttir
male,Aputsiaq,Andersen
male,Þórir,Valdimarsson
male,Baldvin,Leifsson
male,Björgólfur,Snæbjörnsson
female,Ebba,Pálmadóttir
male,Arne,Andersen
male,Sigurkarl,Atlason
male,Björn,Heiðreksson
male,Edvard,Fleischer
male,Frederik,Pedersen
male,Anders,Christensen
male,Daniel,Johansen
male,Bjarki,Oddsson
male,Hans,Annýjarson
male,Valgarður,Hartmannsson
male,Örlygur,Hafþórsson
male,Malik,Andersen
male,Aputsiaq,Løvstrøm
male,Númi,Ármannsson
male,Hallgrímur,Guðmarsson
male,Leifur,Ellertsson
male,Thomas,Lundblad
male,Þórarinn,Rafnsson
male,Nikolaj,Lange
male,Erik,Poulsen
male,Benedikt,Ármannsson
male,Búi,Kristínarson
male,Aputsiaq,Rasmussen
male,Jakob,Pálsson
male,Grímur,Guðleifsson
female,Arna,Jónsdóttir
male,Patrekur,Þorbjarnarson
male,Tryggvi,Valgarðsson
female,Oline,Poulsen
male,Ludvig,Sørensen
male,Svend,Nielsen
male,Björgólfur,Rósmundsson
male,Marius,Jakobsen
female,Regine,Isaksen
male,Gestur,Rósmundsson
male,Mikael,Filemonsen
male,Torfi,Sigurbergsson
male,Gerth,Josefsen
male,Rasmus,Johansen
male,Erik,Kristiansen
male,Arne,Josefsen
male,Emil,Hreggviðsson
male,Tobias,Berthelsen
male,Sindri,Þorbergsson
female,Dögg,Jensdóttir
male,Karl,Felixson
male,Erik,Jensen
male,Mathias,Poulsen
male,Peter,Filemonsen
male,Daniel,Zeeb
female,Paninnguaq,Lyberth
male,Ole,Kleist
male,Sturlaugur,Annýjarson
male,Aron,Hafþórsson
male,Mattías,Bergþórsson
male,Jakob,Petrussen
female,Hansine,Hansen
male,Michael,Kleist
male,Fannberg,Grímsson
male,Kristmann,Guðlaugsson
male,Viðar,Steinsson
male,Kristófer,Hjörleifsson
male,Mathias,Mathiassen
male,Kristófer,Þorvaldsson
male,Þorgils,Guttormsson
male,Guðlaugur,Borgþórsson
male,Auðunn,Theódórsson
male,Valur,Sigurþórsson
female,Julie,Andersen
male,Knud,Egede
male,Helgi,Herbertsson
male,Richard,Sæmundsson
male,Guðbrandur,Gústafsson
male,Hans,Kristensen
female,Ólína,Sigmundsdóttir
male,Friðþjófur,Atlason
male,Sverrir,Ríkharðsson
male,Pálmi,Bjarkason
male,Valur,Ágústsson
male,Birgir,Ólafsson
male,Gautur,Vilhelmsson
male,Lars,Josefsen
male,Hans,Pedersen
male,Hafþór,Reynisson
male,Johan,Egede
male,Hinrik,Fróðason
male,Friðgeir,Hrafnsson
male,Jakob,Georgsson
male,Ole,Jensen
male,Eyjólfur,Sigvaldason
male,Nuka,Mathiassen
male,Friðrik,Guttormsson
male,Pavia,Frederiksen
male,Ingvar,Þráinsson
male,Mathias,Sørensen
male,Alexander,Engilbertsson
male,Knud,Abelsen
male,Sigmundur,Óttarsson
male,Sigurður,Úlfarsson
female,Árvök,Björgvinsdóttir
male,Gestur,Finnbogason
female,Bára,Aðalbjörnsdóttir
male,Stefnir,Sigvaldason
male,Frederik,Johansen
male,Runólfur,Edgarsson
female,Judithe,Mikaelsen
female,Marta,Bernódusdóttir
male,Jens,Frederiksen
male,Aputsiaq,Olsen
female,Mette,Jensen
male,Ole,Lange
female,Agatha,Arnórsdóttir
male,Áki,Auðunsson
male,Sindri,Másson
male,Friðgeir,Áskelsson
male,Søren,Broberg
female,Ingveldur,Alfreðsdóttir
male,Nikolaj,Heilmann
male,Aðalbjörn,Brynjúlfsson
male,Ragnar,Guðmarsson
male,Johannes,Johansen
male,Bragi,Bárðarson
male,Hallur,Agnarsson
male,Minik,Petersen
male,Hrafnkell,Skjaldarson
male,Sævar,Ísidórsson
male,Þórarinn,Skarphéðinsson
male,Poul,Karlsen
male,Sigmar,Pétursson
male,Tobias,Møller
male,Höskuldur,Ársælsson
male,Miki,Christensen
male,Torfi,Olgeirsson
female,Lóa,Angantýsdóttir
male,Jónatan,Ómarsson
male,Anders,Geisler
male,Nuka,Jensen
male,Tryggvi,Eggertsson
male,Halldór,Þorbjörnsson
male,Isak,Pedersen
male,Marius,Kleist
male,Leó,Hafsteinsson
male,Arne,Nielsen
male,Svend,Rosing
male,Hans,Kleist
male,Jónatan,Magnússon
male,Johannes,Møller
female,Nina,Lennert
male,Anders,Hansen
male,Nikolaj,Petersen
male,Haddur,Hlöðvarsson
male,Peter,Lange
male,Jonas,Jakobsen
male,Boði,Smárason
female,Sara,Rosing
male,Björgólfur,Ottósson
male,Kim,Mikaelsen
male,David,Jeremiassen
female,Fanney,Eggertsdóttir
male,Arnór,Halldórsson
male,Svend,Lyberth
male,Jørgen,Isaksen
male,Edvard,Christensen
male,Jón,Hallbjörnsson
male,Daniel,Mikaelsen
male,Michael,Jeremiassen
male,Minik,Hansen
male,Friðfinnur,Þorbjarnarson
male,Úlfar,Skúlason
male,Søren,Josefsen
male,Héðinn,Jóhannsson
male,Ísak,Skjaldarson
male,Hermann,Ásbergsson
male,Gerth,Pedersen
male,Knud,Jørgensen
male,Jónatan,Másson
male,Nuka,Isaksen
male,Friðþjófur,Arnkelsson
female,Judithe,Geisler
female,Nivi,Mathiassen
male,Benedikt,Eyjólfsson
male,Hans,Sandgreen
male,Barði,Þorbergsson
male,Axel,Friðbertsson
male,Isak,Egede
male,Mikael,Þorvaldsson
male,Sæmundur,Hólmsteinsson
male,Poul,Sandgreen
male,Poul,Pedersen
male,Björgúlfur,Geirsson
male,Nikolaj,Lange
male,Marko,Ástráðsson
male,Ludvig,Jørgensen
male,Viðar,Hilmarsson
male,Eyþór,Maríasson
male,Poul,Lyberth
male,Fjölnir,Marteinsson
male,Þórólfur,Hallbergsson
female,Maren,Sørensen
male,Jan,Lyberth
male,Ole,Brandt
male,Anders,Karlsen
male,Oddbjörn,Kristbergsson
male,Inunnguaq,Heilmann
male,Mathias,Kristensen
male,Knud,Kristensen
male,Anders,Løvstrøm
male,Hafþór,Þórarinsson
male,Ríkharður,Svanbergsson
male,Unnsteinn,Hansson
male,Edvard,Filemonsen
female,Kristína,Örlygsdóttir
male,Nuka,Josefsen
male,Inunnguaq,Mathiassen
male,Jakob,Kristiansen
male,Daníel,Þorkelsson
female,Kathrine,Johansen
male,Aputsiaq,Kleist
male,Aputsiaq,Jørgensen
male,Árni,Hafþórsson
male,Arne,Jensen
male,Malik,Josefsen
male,Tinna,Svanlaugsson
male,Kim,Kristensen
male,Kristján,Aðalsteinsson
female,Harpa,Hafsteinsdóttir
male,Pavia,Møller
male,Valgarður,Bjarkason
female,Johanne,Jensen
male,Kristian,Sandgreen
male,Þórólfur,Borgarsson
male,Grímur,Brynjúlfsson
male,Per,Lundblad
male,Lárus,Heimisson
male,Ingi,Árnason
male,Gunnar,Kristleifsson
male,Tinna,Ásgrímsson
male,Erlingur,Róbertsson
male,Sæmundur,Ævarsson
male,Guðbjartur,Hrafnhildarson
male,Michael,Andersen
male,Edvard,Olsen
male,Per,Kristiansen
female,Steingerður,Bragadóttir
male,Martin,Karlsen
male,Steinar,Ásmundsson
male,Guðgeir,Brynjúlfsson
male,Jakob,Þóroddsson
male,Alexander,Haraldsson
male,Johannes,Olsen
male,Malik,Jeremiassen
male,Jens,Knudsen
male,Esjar,Márusson
female,Ane,Jakobsen
female,Jakobine,Andersen
male,Frederik,Karlsen
male,Þorleifur,Bergsson
male,Styrmir,Sigurdórsson
male,Karl,Christensen
male,Aputsiaq,Johansen
male,Edvard,Mathiassen
male,Kristian,Hansen
male,Hans,Møller
female,Unnur,Sigþórsdóttir
male,Jørgen,Jørgensen
male,Arne,Petrussen
male,Knud,Sørensen
male,Sigmar,Hansson
male,Minik,Isaksen
male,Martin,Jensen
male,Martin,Lennert
male,Karl,Abelsen
male,Karl,Josefsen
male,Þorkell,Ástvaldsson
male,Torfi,Hagalínsson
male,Johan,Jensen
male,Marina,Jörundsson
male,Eiður,Sigurvinsson
male,Hugi,Rósuson
male,David,Rasmussen
male,Torfi,Sigurgeirsson
male,Ludvig,Sandgreen
male,Þorsteinn,Flosason
male,Gerth,Egede
male,Davíð,Einarsson
male,Lars,Zeeb
male,Arne,Knudsen
male,Rasmus,Davidsen
male,Hans,Nielsen
male,Pavia,Lynge
male,Malik,Jensen
male,Rhoda,Finnsson
male,Gautur,Sörensen
male,Þórður,Ögmundsson
male,Ásgrímur,Heiðreksson
male,Aðalbjörn,Friðjónsson
male,Unnar,Guðgeirsson
male,Friðfinnur,Sigurbjörnsson
male,Nikolaj,Abelsen
male,Ármann,Jasonarson
male,Peter,Nielsen
male,Viðar,Brynjólfsson
male,Vignir,Agnarsson
male,Miki,Josefsen
male,Kolbeinn,Margeirsson
female,Juliane,Brandt
male,Poul,Christensen
male,Gerth,Mathiassen
male,Niels,Josefsen
male,Lárus,Hafliðason
male,Oddbjörn,Rögnvaldsson
male,Tobias,Kristiansen
male,Andreas,Brandt
male,Hilmar,Ásgeirsson
male,Esjar,Ingvason
male,Martin,Filemonsen
male,Vignir,Hallgrímsson
male,Númi,Valsson
male,Ingþór,Brynjúlfsson
male,Miki,Petersen
male,Arnór,Theódórsson
male,Mikael,Geisler
female,Oline,Nielsen
male,Stefnir,Sigurbergsson
male,Inunnguaq,Broberg
female,Kristine,Lynge
male,Malik,Andersen
female,Judithe,Petersen
male,Malik,Jeremiassen
male,Vilbergur,Jónsson
male,Lars,Rosing
male,Jakob,Broberg
female,Silja,Eyjólfsdóttir
male,Barði,Guðmundsson
male,Hjálmar,Gústafsson
male,Guðbjartur,Auðbjörnsson
male,Daniel,Petersen
male,Helgi,Margeirsson
male,Sigurgeir,Vernharðsson
male,Isak,Kristiansen
male,Jósef,Gestsson
female,Laila,Hansen
male,Søren,Johansen
female,Vaka,Albertsdóttir
female,Maggý,Gunnarsdóttir
male,Skarphéðinn,Valdimarsson
male,Per,Lennert
male,Jørgen,Jensen
male,Eyjólfur,Kristleifsson
male,Martin,Jeremiassen
male,Margeir,Grettisson
male,John,Poulsen
male,Martin,Kristensen
male,Ilona,Heimisson
male,Ragnar,Ingvarsson
male,Óli,Sigjónsson
male,Albert,Sverrisson
male,Þorkell,Vilhelmsson
male,Eyjólfur,Þorgrímsson
male,Mathias,Josefsen
male,Rafn,Arnarson
male,Malik,Fleischer
male,Johan,Tobiassen
male,Hilmir,Runólfsson
male,Sturlaugur,Hallbjörnsson
male,Pavia,Isaksen
male,Sigfús,Dagbjartsson
male,Guðlaugur,Björgmundsson
male,John,Petersen
male,Svend,Berthelsen
male,Jónatan,Bryndísarson
male,Martin,Davidsen
male,Valgarður,Jóhannesson
male,Peter,Mathiassen
male,Albert,Ernuson
female,Kaja,Ellertsdóttir
male,Ole,Mikaelsen
male,Eyþór,Guðbjarnarson
male,Malik,Jørgensen
male,Johan,Fleischer
male,Karl,Poulsen
male,Jens,Berthelsen
male,Hallgrímur,Kristjánsson
male,Ole,Johansen
male,Mathias,Sørensen
male,Ludvig,Andersen
male,Pavia,Fleischer
male,Otto,Knudsen
male,Jens,Frederiksen
male,Ludvig,Lynge
male,Peter,Christensen
male,Edvard,Broberg
male,Jan,Frederiksen
male,Lars,Andersen
male,Otto,Løvstrøm
male,Bergmundur,Grétarsson
male,Aputsiaq,Christensen
male,Geirfinnur,Klemenzson
male,Ægir,Viktorsson
male,Stephan,Fylkisson
female,Dorthe,Lyberth
male,Böðvar,Diðriksson
female,Magdalena,Jónsdóttir
male,Valþór,Stefánsson
male,Daniel,Jakobsen
male,John,Lange
male,Daníel,Bjartmarsson
female,Karoline,Heilmann
male,Pavia,Lynge
male,Einar,Þórmundsson
male,Kristian,Rasmussen
male,Aputsiaq,Fleischer
male,Aputsiaq,Filemonsen
male,Tobias,Lyberth
male,Marinó,Sigurðarson
male,Minik,Abelsen
male,Inunnguaq,Sandgreen
male,Viðar,Annýjarson
male,Heimir,Felixson
male,Johannes,Sørensen
female,Hanne,Geisler
male,Peter,Sørensen
male,Jan,Fleischer
male,Ludvig,Møller
male,Eggert,Steinarsson
male,Ludvig,Broberg
male,Steinþór,Rósuson
male,Jónatan,Hreiðarsson
male,Rasmus,Kreutzmann
male,Isak,Sørensen
male,Peter,Andersen
male,Kristian,Petersen
male,Jónmundur,Benediktsson
male,Arne,Abelsen
male,Valur,Kristmundsson
male,Unnsteinn,Hreiðarsson
male,Ludvig,Mikaelsen
male,Otto,Davidsen
male,Ingólfur,Ársælsson
male,Bjarni,Eyjólfsson
male,John,Lyberth
male,Ásgeir,Sumarliðason
male,Steinþór,Hallbjörnsson
male,Ludvig,Olsen
male,Poul,Brandt
male,Jan,Jensen
male,Björgúlfur,Sigurbergsson
female,Lovísa,Þorsteinsdóttir
male,Matti,Gautason
male,Ilona,Baldvinsson
male,Ludvig,Møller
male,Mikael,Rosing
male,Mikael,Arnþórsson
male,Gerth,Sørensen
male,Andreas,Larsen
male,Martin,Lynge
male,Otto,Møller
male,Pavia,Lange
female,Kathrine,Sørensen
male,Diðrik,Þorbjörnsson
male,Þórir,Bjarnason
male,Héðinn,Hreggviðsson
male,Per,Lennert
male,Inunnguaq,Egede
male,Gils,Þórmundsson
male,Þorsteinn,Sigurbergsson
female,Helga,Bragadóttir
male,Johannes,Christensen
male,Benedikt,Þóreyjarson
male,Scheving,Klemenzson
female,Amalie,Christensen
male,Sighvatur,Arnarsson
female,Díana,Haraldsdóttir
male,Bergsveinn,Heiðreksson
male,Sölvi,Ámundason
male,Héðinn,Steinþórsson
male,Knud,Knudsen
male,Rasmus,Andersen
male,Hans,Mathiassen
male,Peter,Josefsen
male,Þröstur,Grétarsson
female,Martha,Møller
male,Gerth,Egede
male,Karl,Rasmussen
female,Johanne,Lyberth
male,Bergmundur,Daníelsson
male,Þormar,Ingþórsson
male,David,Jørgensen
male,Helgi,Bjartmarsson
male,Guðbjartur,Þráinsson
male,Inunnguaq,Johansen
male,Skafti,Guðbergsson
male,Haukur,Valsson
male,Lars,Nielsen
male,Søren,Johansen
male,Eðvald,Alfonsson
male,Stefán,Sturluson
female,Paninnguaq,Hansen
male,Sigursteinn,Hjaltason
male,Pavia,Berthelsen
female,Anna,Filemonsen
male,Bragi,Oddbergsson
male,Søren,Rasmussen
male,Þorleifur,Márusson
male,Hjörtur,Björgmundsson
male,Hermann,Ásmundarson
male,Þórður,Marselíusarson
male,Andri,Arnoldsson
male,Róbert,Brynjólfsson
male,Miki,Sørensen
male,Elías,Úlfarsson
male,Henrik,Brandt
male,Gunnsteinn,Hjálmtýsson
male,Ásmundur,Árnþórsson
male,Nikolaj,Lynge
male,Matthías,Adolfsson
male,Anton,Rögnvaldsson
male,Aðalgeir,Höskuldsson
male,Jonas,Geisler
male,Lars,Larsen
male,Björgvin,Jónasson
male,Mikael,Lennert
male,Arthur,Sigfússon
male,Rasmus,Kristiansen
male,Minik,Frederiksen
male,Eysteinn,Gissurarson
male,Rúnar,Sveinbjörnsson
female,Dagmar,Sigmarsdóttir
male,Steingrímur,Sigtryggsson
female,Rosa,Josefsen
female,Sæbjörg,Óladóttir
male,Guðjón,Gunnþórsson
female,Maren,Poulsen
male,Karl,Broberg
male,Unnþór,Georgsson
male,Knud,Frederiksen
male,Oddur,Viðarsson
male,David,Josefsen
male,Barði,Felixson
male,Mathias,Johansen
female,Geirþrúður,Kristjánsdóttir
male,Þorleifur,Rósuson
female,Susanne,Rosing
male,Sigurdór,Friðbjarnarson
male,Indriði,Adolfsson
male,Henrik,Jørgensen
male,Martin,Mikaelsen
male,Stefán,Sophusson
male,Per,Johansen
male,Eiríkur,Arnarson
male,Michael,Enoksen
male,Henrik,Jakobsen
male,Malik,Lyberth
male,Knud,Petrussen
male,Veturliði,Guðbergsson
male,Gerth,Poulsen
male,Haddur,Böðvarsson
male,Otto,Geisler
male,Martin,Kristiansen
male,Hans,Sigmarsson
male,Arne,Egede
male,Torfi,Sturluson
male,Knud,Frederiksen
male,Otto,Nielsen
male,Kristján,Gunnlaugsson
male,Júlíus,Víglundsson
male,Niels,Brandt
male,Börkur,Hrafnhildarson
male,Arne,Mikaelsen
male,Birgir,Grétarsson
male,Marius,Nielsen
male,Haukur,Ástþórsson
male,Edvard,Kristensen
male,Andreas,Poulsen
male,Ásgeir,Gíslason
male,Bárður,Arnkelsson
male,Runólfur,Steinarsson
male,Jósef,Óttarsson
male,David,Christensen
male,Peter,Lundblad
male,Sindri,Leifsson
male,Mikael,Jensen
male,Valþór,Valtýsson
male,Tobias,Josefsen
male,Gerth,Fleischer
male,Ásgeir,Matthíasson
male,Sæmundur,Hermanníusson
male,Sigurbjörn,Sveinsson
male,Bergþór,Hjartarson
male,Bergvin,Sigmarsson
male,Inunnguaq,Lyberth
male,Edvard,Enoksen
male,Vilhjálmur,Theodórsson
male,Sigmundur,Hafsteinsson
male,Pavia,Fleischer
female,Sólrún,Björgvinsdóttir
male,Marius,Zeeb
male,Poul,Jeremiassen
male,Þorgils,Eðvaldsson
male,Brynjólfur,Geirsson
male,Niels,Sandgreen
male,Börkur,Sigurfinnsson
male,Ellert,Friðfinnsson
male,Trausti,Sumarliðason
male,Poul,Kristensen
male,Henrik,Møller
male,Þórir,Pálmason
male,Emil,Marselíusarson
female,Ane,Jeremiassen
male,Hreiðar,Martinsson
male,Kalman,Ásbjörnsson
male,Martin,Knudsen
male,Jakob,Kristiansen
male,Guðmar,Sigfinnsson
male,David,Davidsen
male,Hilmir,Kolbeinsson
male,Pálmi,Þóreyjarson
male,Marius,Johansen
male,Rasmus,Egede
male,Johan,Enoksen
male,Þorbjörn,Theodórsson
female,Anna,Frederiksen
male,Svend,Lynge
male,Jón,Rósmundsson
female,Else,Jakobsen
female,Kristrún,Sigmundsdóttir
male,Andreas,Poulsen
male,Siggeir,Indriðason
male,Þorsteinn,Heiðreksson
male,Arne,Poulsen
male,Anders,Pedersen
male,Inunnguaq,Knudsen
male,Friðfinnur,Geirmundsson
male,Pavia,Geisler
male,Dagur,Egilsson
male,Kim,Kristensen
male,Sigurmann,Reynisson
male,Nuka,Rasmussen
female,Bjarney,Árnadóttir
male,Aðalbjörn,Hreinsson
male,Lars,Lennert
male,Sigurbjörn,Steindórsson
male,Vignir,Ómarsson
male,Jakob,Jørgensen
male,Hermann,Þóreyjarson
male,Inunnguaq,Kristiansen
male,Ole,Mikaelsen
male,Arngrímur,Hildisson
male,Gerth,Jeremiassen
male,Erik,Løvstrøm
female,Pauline,Løvstrøm
male,Baldvin,Ingimarsson
male,Niels,Christensen
male,Danival,Snæbjörnsson
male,Nuka,Poulsen
male,Björgólfur,Teitsson
female,Heiðrún,Guðsteinsdóttir
male,Lars,Berthelsen
male,John,Løvstrøm
male,Knud,Johansen
male,Júlíus,Valdimarsson
female,Eik,Bjarnadóttir
male,Pjetur,Steinarsson
male,Unnþór,Tómasson
male,Haraldur,Sigursteinsson
male,Arne,Løvstrøm
male,Börkur,Sæmundsson
male,Percy,Guðfinnsson
male,Daniel,Tobiassen
male,Úlfar,Hólmgeirsson
male,Nikolaj,Karlsen
male,Tobias,Josefsen
male,Anders,Sørensen
male,Dagur,Axelsson
male,Andreas,Løvstrøm
male,Miki,Broberg
male,Ingvi,Elíasson
male,Henrik,Rasmussen
male,Martin,Lynge
male,Hreiðar,Björnsson
male,Valdimar,Arnkelsson
male,Guðni,Guðbjörnsson
male,Júlíus,Guðbrandsson
female,Pála,Albertsdóttir
male,Friðberg,Guðnason
male,Torfi,Atlason
male,Ole,Lynge
male,Alexander,Sigurlaugsson
male,Frederik,Rosing
male,Björn,Hlöðvarsson
male,Martin,Sandgreen
male,Inunnguaq,Jakobsen
male,Örvar,Guðbjarnarson
male,Geir,Grétarsson
male,Elís,Steindórsson
male,Jørgen,Larsen
male,Hilmir,Ingimarsson
male,Hallur,Bjarnason
male,Erik,Lennert
male,Anton,Harðarson
male,Isak,Abelsen
male,Svanbjörn,Sigvaldason
male,Einar,Sigfinnsson
male,Søren,Rasmussen
male,Kristian,Heilmann
male,Mikael,Karlsen
male,Eðvald,Kristmundsson
male,Gils,Guðleifsson
male,Michael,Lundblad
male,Unnar,Sigurdórsson
male,Agnar,Bjargmundsson
male,Jørgen,Brandt
male,Kim,Olsen
male,Michael,Christensen
male,Aputsiaq,Abelsen
male,Vernharður,Leifsson
male,Sigtryggur,Engilbertsson
male,Svend,Geisler
male,Vilhjálmur,Brynjarsson
male,Ómar,Guðgeirsson
male,Andreas,Isaksen
male,Jakob,Lyberth
male,Grétar,Indriðason
male,Johannes,Rasmussen
male,Stephan,Ingibergsson
male,John,Sandgreen
male,Nuka,Johansen
male,Emil,Sigurþórsson
male,Henrik,Sandgreen
male,Thomas,Geisler
male,John,Johansen
male,Örn,Víglundsson
male,Ingþór,Bergþórsson
male,Hugi,Guðmundsson
male,Aputsiaq,Hansen
male,Arne,Jensen
male,Andrés,Sophusson
male,Peter,Kreutzmann
male,Miki,Lyberth
male,Jens,Abelsen
male,Arnar,Bergsteinsson
female,Maren,Frederiksen
male,Martin,Kristiansen
male,Johannes,Knudsen
male,Brynjar,Svanlaugsson
male,David,Kristensen
male,Ívar,Matthíasson
male,Sölvi,Hálfdánarson
male,Poul,Lyberth
male,Björgvin,Sigmundsson
male,Isak,Rasmussen
male,Johan,Sørensen
male,Björgólfur,Sigþórsson
male,Poul,Knudsen
male,Søren,Lennert
male,Bernharð,Ásgeirsson
male,Sturlaugur,Hansson
female,Katrine,Kreutzmann
male,Ludvig,Berthelsen
male,Nikolaj,Brandt
male,Ástráður,Skarphéðinsson
male,Víðir,Borgþórsson
male,Bryngeir,Guðbjörnsson
male,Thomas,Lyberth
male,Miki,Andersen
male,Kristian,Kristensen
male,Tobias,Lyberth
male,Bragi,Hermundsson
male,Unnar,Njálsson
male,Sigurdór,Guðsteinsson
male,Martin,Enoksen
male,Karl,Geisler
male,Héðinn,Sigurbjörnsson
male,Sverrir,Sævarsson
male,Fjalar,Gissurarson
male,Ástþór,Frímannsson
male,Skarphéðinn,Sigurðsson
male,Páll,Hafsteinsson
male,Johan,Petersen
male,Nuka,Abelsen
female,Ásdís,Garðarsdóttir
male,Jan,Kreutzmann
male,Michael,Sandgreen
male,Søren,Abelsen
male,Ármann,Bernharðsson
male,Ingimar,Gunnþórsson
female,Pipaluk,Mathiassen
male,Poul,Brandt
male,David,Davidsen
male,Erik,Møller
male,Hjörtur,Rúnarsson
male,Bernharð,Jónmundsson
male,Knud,Petrussen
male,Hinrik,Traustason
female,Kathrine,Lyberth
male,Andri,Ásmundsson
male,Búi,Héðinsson
male,Gerth,Frederiksen
male,Ole,Kreutzmann
male,Sighvatr,Hildisson
male,Rhoda,Böðvarsson
male,Johan,Josefsen
male,Hafsteinn,Guðbjarnarson
male,Stephan,Sigjónsson
male,Ingimundur,Jóhannesson
male,Hans,Larsen
male,Arne,Kristiansen
male,Haukur,Eyþórsson
male,Ingvi,Júlíusson
female,Jórunn,Halldórsdóttir
male,Viktor,Eyþórsson
male,Minik,Lennert
male,Ludvig,Zeeb
male,Ingi,Steinþórsson
male,Aputsiaq,Nielsen
male,Kim,Sørensen
male,Sigurkarl,Ásbergsson
male,Björn,Bergþórsson
male,Rhoda,Vernharðsson
female,Elinborg,Hjartardóttir
male,Søren,Kristensen
male,Martin,Møller
female,Katrine,Kristensen
male,Pavia,Andersen
male,Svend,Christensen
male,Rasmus,Jørgensen
male,Indriði,Valsson
male,Mathias,Jørgensen
male,Miki,Lyberth
male,Pavia,Hansen
female,Julie,Nielsen
female,Laila,Josefsen
male,Gils,Friðgeirsson
male,Arthur,Ingimarsson
female,Charlotte,Hansen
male,Søren,Nielsen
female,Stefanía,Sigfúsdóttir
male,Stefán,Brynjólfsson
male,Ármann,Svanbergsson
male,Jørgen,Filemonsen
male,Johannes,Geisler
male,Hans,Møller
male,Nikolaj,Kristiansen
male,Jakob,Áskelsson
male,Lars,Jensen
male,Andreas,Jørgensen
female,Bergljót,Sigurvaldadóttir
male,Marius,Johansen
male,Hans,Lyberth
male,Mikael,Petrussen
male,Viktor,Finnbogason
male,Friðþjófur,Svanbergsson
male,Friðsteinn,Guðmundsson
male,Þröstur,Ellertsson
male,Kristján,Bernharðsson
male,Kristján,Auðbjörnsson
female,Katrin,Jóhannesdóttir
male,David,Sandgreen
female,Heiða,Runólfsdóttir
male,Þórbergur,Bergsteinsson
male,Torfi,Sigmundsson
male,Njörður,Ludvigsson
male,Kristinn,Borgarsson
male,Jonas,Abelsen
male,Karl,Davidsen
male,Aputsiaq,Lennert
male,Elías,Svavarsson
male,Daniel,Hansen
male,Peter,Christensen
male,David,Christensen
male,Hilmir,Rósmundsson
male,Poul,Sørensen
male,Niels,Tobiassen
male,Oddbjörn,Hildisson
male,Kim,Lange
male,Úlfar,Pálmason
male,Jonas,Pedersen
male,Nuka,Løvstrøm
male,Esjar,Sigurjónsson
male,Leifur,Bertelsson
male,Isak,Johansen
male,Mikael,Jakobsen
female,Susanne,Lennert
male,Steinn,Hálfdánarson
male,Knud,Rasmussen
male,Erik,Isaksen
male,Niels,Mikaelsen
male,Matthías,Þorbjörnsson
male,Aðalsteinn,Maríasson
male,Miki,Davidsen
male,Jósef,Baldvinsson
male,Pavia,Davidsen
male,Arnþór,Bergsveinsson
male,Anders,Egede
male,David,Løvstrøm
male,Ole,Frederiksen
male,Hafliði,Sigurpálsson
male,Finnur,Ögmundsson
male,Ívar,Kárason
male,Tobias,Berthelsen
male,Johannes,Christensen
male,Jens,Lennert
male,Bergþór,Klemenzson
female,Inga,Gunnarsdóttir
male,Fjölnir,Hafþórsson
male,Edvard,Isaksen
male,Arnþór,Óttarsson
male,Jósef,Sigurgeirsson
female,Laila,Knudsen
male,Fjalar,Fylkisson
male,Richard,Guðmundsson
male,Marko,Þorbjarnarson
male,Andreas,Rosing
male,Kristian,Larsen
female,Pipaluk,Lynge
male,Þorbjörn,Róbertsson
male,Anders,Fleischer
male,John,Broberg
male,Sturla,Dagbjartsson
female,Juliane,Rasmussen
male,Smári,Erlendsson
male,Kim,Berthelsen
male,Haraldur,Aðalsteinsson
male,Alexander,Sigurgeirsson
male,Mikael,Jakobsen
male,Sverrir,Júlíusson
male,Marteinn,Rósuson
male,Jørgen,Lyberth
male,Nikolaj,Knudsen
male,Pavia,Lange
male,Knud,Johansen
male,Fjölnir,Ástþórsson
male,Grétar,Felixson
male,Runólfur,Símonarson
male,Snorri,Ísidórsson
male,Jakob,Mathiassen
male,Hjörleifur,Þorláksson
male,Svend,Jakobsen
male,Kristján,Kristbergsson
male,Örn,Óttarsson
male,Thomas,Hansen
male,Bernharð,Þorgilsson
male,Jørgen,Knudsen
male,Diðrik,Jóhannesson
male,Engilbert,Loftsson
male,Finnbogi,Hrafnkelsson
female,Arna,Eyðfinnsdóttir
male,Sigurgeir,Steingrímsson
male,Miki,Pedersen
male,Gerth,Egede
male,Jonas,Jeremiassen
male,Steinþór,Guðjónsson
female,Pálína,Valbergsdóttir
male,Otto,Fleischer
male,Andreas,Kristensen
male,Søren,Tobiassen
male,Ingimar,Hermannsson
female,Vala,Erlendsdóttir
male,Otto,Hansen
female,Lilja,Albertsdóttir
male,Anders,Heilmann
male,Óli,Guðmannsson
male,Niels,Møller
male,Dagfinnur,Sigurpálsson
male,Svend,Josefsen
male,Jan,Lynge
male,David,Heilmann
male,Arne,Brandt
male,Johannes,Kleist
male,Henrik,Rasmussen
male,Peter,Isaksen
male,Hugi,Skúlason
male,Kolbeinn,Vigfússon
male,Erik,Abelsen
male,Sigfús,Andersson
male,Guðni,Guðbrandsson
male,Hans,Jakobsen
female,Berglind,Albertsdóttir
male,Arne,Sandgreen
male,Markús,Snæbjörnsson
male,Daniel,Fleischer
male,Marius,Kristiansen
female,Sveinbjörg,Björnsdóttir
male,Ragnar,Valtýsson
male,Nikolaj,Nielsen
male,Stefanía,Einarsson
male,David,Enoksen
female,Eik,Ingadóttir
male,Knud,Enoksen
male,Ívar,Rútsson
female,Birthe,Rasmussen
male,Frederik,Larsen
male,John,Olsen
male,Tobias,Andersen
male,Hreinn,Ársælsson
male,Thomas,Mikaelsen
male,Jonas,Karlsen
male,Andrés,Skjaldarson
male,Kalman,Ásgrímsson
male,Per,Sandgreen
male,Kim,Broberg
male,Rasmus,Andersen
male,Johannes,Frederiksen
male,Peter,Davidsen
female,Nanna,Níelsdóttir
male,Ólafur,Bjarnarsonar
male,Arnþór,Indriðason
male,Thomas,Olsen
male,Valþór,Jónsson
female,Margrethe,Rasmussen
male,Elías,Einarsson
male,Kim,Isaksen
male,Erik,Brandt
male,Peter,Enoksen
male,Aputsiaq,Mathiassen
male,Alexander,Agnarsson
male,Jonas,Berthelsen
male,Daniel,Abelsen
female,Ástrós,Haraldsdóttir
male,Hallur,Hrafnkelsson
male,Scheving,Kristleifsson
male,Arnsteinn,Hreinsson
male,Erik,Nielsen
male,Pjetur,Jónmundsson
male,Vésteinn,Aronsson
male,Leifur,Sigjónsson
male,Þorkell,Theódórsson
male,Fjölnir,Írisarson
male,Guðbjartur,Guðbjörnsson
male,David,Johansen
male,John,Lynge
male,Andreas,Poulsen
male,Ríkharður,Sigurþórsson
male,Marko,Hrafnkelsson
male,Gabríel,Jasonarson
male,Otto,Andersen
male,Rasmus,Larsen
female,Ísfold,Bryndísardóttir
female,Kristbjörg,Benediktsdóttir
male,Hallsteinn,Adolfsson
male,Ole,Jørgensen
male,Örlygur,Auðbjörnsson
male,Ásgrímur,Hermundsson
male,Sigmundur,Guðmarsson
female,Vala,Alfreðsdóttir
male,Johan,Nielsen
male,Kristian,Lynge
male,Guðbrandur,Hallssonar
male,Kim,Frederiksen
male,Peter,Isaksen
female,Sofie,Fleischer
male,John,Jeremiassen
male,Poul,Mathiassen
male,Nuka,Lundblad
male,Ingólfur,Þorgilsson
male,Miki,Filemonsen
male,Vignir,Sturluson
male,Aputsiaq,Rosing
male,Sæmundur,Guðleifsson
male,Mathias,Frederiksen
male,Börkur,Þorbjörnsson
male,Malik,Sørensen
male,Börkur,Sigþórsson
male,Kim,Frederiksen
male,Niels,Sandgreen
male,Eiríkur,Guðgeirsson
male,Áslákur,Þórsson
male,Sigfús,Hafliðason
male,Kristian,Kristensen
female,Jakobine,Kristensen
male,Trausti,Hinriksson
female,Paninnguaq,Knudsen
female,Linda,Ingadóttir
male,Otto,Karlsen
male,Hans,Sigurdórsson
male,Gunnar,Sigurðarson
male,Erlendur,Birgisson
male,Hjálmar,Daðason
male,Poul,Karlsen
male,Malik,Kreutzmann
male,Anders,Frederiksen
male,David,Poulsen
male,Tobias,Møller
female,Sara,Lange
male,Kjartan,Bernharðsson
male,Edvard,Jørgensen
male,Þórarinn,Sigurbergsson
male,Björn,Vigfússon
male,Mikael,Broberg
female,Árnína,Sigmarsdóttir
male,Erlingur,Sörensen
male,Peter,Møller
male,Örvar,Sumarliðason
male,Erik,Jakobsen
male,Marina,Agnarsson
male,Runólfur,Borgarsson
female,Jarþrúður,Ingadóttir
male,Anders,Petrussen
male,Kim,Kristiansen
female,Fanndís,Óskarsdóttir
male,Lars,Kristensen
male,Gunnsteinn,Diðriksson
male,Ole,Sørensen
male,Gerth,Kreutzmann
male,Tinna,Hólmsteinsson
male,Rúnar,Óskarsson
male,Tobias,Jensen
male,Júlíus,Friðriksson
male,Sigurdór,Magnason
female,Arndís,Benediktsdóttir
male,Mathias,Knudsen
male,Sigurkarl,Stefánsson
male,Skarphéðinn,Viggósson
male,Hartmann,Búason
male,Anders,Andersen
male,Otto,Petersen
female,Sigurveig,Oddgeirsdóttir
female,Bóel,Hrafnkelsdóttir
male,Jakob,Petrussen
male,Ilona,Hagalínsson
male,Jan,Johansen
male,Søren,Petersen
male,Mathias,Heilmann
male,Svanbjörn,Sigurbergsson
male,Arne,Kristiansen
female,Johanne,Nielsen
female,Stella,Erlendsdóttir
male,Friðþjófur,Markússon
male,Gerth,Davidsen
female,Sigurlaug,Reynisdóttir
male,Siggeir,Albertsson
male,Daniel,Hansen
male,Arne,Abelsen
male,Tinna,Mathiesen
male,Nikulás,Oddgeirsson
male,Þengill,Friðleifsson
male,Ole,Broberg
male,Lars,Isaksen
male,Arne,Zeeb
female,Þorstína,Ingveldardóttir
female,Randi,Jakobsdóttir
male,Svend,Kristiansen
male,Daníel,Þórmundsson
male,Peter,Kreutzmann
male,Anders,Jensen
male,Søren,Kristensen
male,Brynjar,Ernuson
male,Hallur,Bergþóruson
male,Poul,Rosing
male,Henrik,Løvstrøm
male,Nuka,Egede
male,Ole,Rosing
male,Gautur,Sigurðarson
male,Sturla,Kárason
male,Tobias,Geisler
male,Henrik,Heilmann
male,Héðinn,Þorgrímsson
male,Tobias,Brandt
male,Valgeir,Ingibergsson
male,Þórir,Árnason
male,Grímur,Viggósson
male,Rasmus,Jeremiassen
male,Þorkell,Auðbjörnsson
male,Þór,Þóroddsson
male,Arnsteinn,Hlöðversson
male,Adam,Ragnarsson
male,Daníel,Oddbergsson
male,Jørgen,Geisler
male,Hilmar,Ragnarsson
male,Gautur,Valgeirsson
male,Peter,Kristensen
male,Friðrik,Unnarsson
male,Jonas,Mikaelsen
male,Oddur,Þorleifsson
male,Þorgils,Unnarsson
male,Sigurður,Friðvinsson
female,Ingigerður,Ingvarsdóttir
male,Boði,Þórðarson
male,Hjörleifur,Sumarliðason
female,Vilmundína,Ingveldardóttir
male,Miki,Lyberth
male,Samúel,Jónmundsson
male,Knud,Kristiansen
male,David,Tobiassen
male,Magnús,Márusson
male,Kim,Broberg
male,Matthías,Arngrímsson
male,Tobias,Geisler
male,Jens,Kristensen
male,Poul,Mathiassen
female,Susanne,Christensen
male,Jørgen,Abelsen
male,Thomas,Lundblad
male,Reynir,Sigjónsson
male,Sölvi,Oddgeirsson
male,Gautur,Sæmundsson
male,Poul,Kristensen
male,Arne,Mikaelsen
male,Böðvar,Friðbjarnarson
female,Kathrine,Petersen
male,Sölvi,Þormóðsson
male,Fannberg,Eiríksson
male,Helgi,Ögmundsson
male,Marius,Filemonsen
female,Regine,Fleischer
male,Poul,Andersen
male,Arne,Pedersen
male,Edvard,Jensen
male,Marinó,Hjálmtýsson
female,Petrine,Jakobsen
male,Edvard,Isaksen
male,Ole,Petrussen
male,Höskuldur,Friðleifsson
male,Emil,Helgason
male,Knud,Jørgensen
male,Svend,Mathiassen
female,Paninnguaq,Lennert
male,Thomas,Poulsen
male,Héðinn,Bergsson
male,Hilmir,Heiðreksson
male,Þorsteinn,Engilbertsson
male,Sveinn,Ísidórsson
male,Sólveig,Hrafnhildarson
male,Kristján,Ingólfsson
male,Þorkell,Kristbergsson
male,Guðni,Svansson
male,Valþór,Ingvason
male,Johannes,Abelsen
male,Brynjólfur,Þóreyjarson
male,Johannes,Lynge
male,Inunnguaq,Kleist
male,Jan,Møller
male,Arngrímur,Guðjónsson
male,Niels,Hansen
male,Jan,Olsen
male,Johannes,Andersen
male,Svend,Larsen
male,Börkur,Hreinsson
male,Eysteinn,Alfonsson
male,Marius,Lyberth
male,John,Petrussen
male,Andreas,Andersen
male,Gerth,Petersen
male,Anders,Pedersen
male,Nikolaj,Mathiassen
male,Per,Broberg
male,Margeir,Bernharðsson
male,Geirfinnur,Sólmundsson
female,Cecilie,Egede
male,Frederik,Kleist
male,Fjalar,Hólmgeirsson
female,Ivalu,Frederiksen
male,Skarphéðinn,Jakobsson
male,Þorgils,Ragnarsson
male,Mikael,Larsen
male,Guðlaugur,Sæmundsson
male,Hans,Kleist
male,Unnsteinn,Bryndísarson
male,Hans,Isaksen
male,Kim,Nielsen
female,Þórhalla,Jóakimsdóttir
male,Alexander,Þorgeirsson
male,Henrik,Pedersen
male,Jørgen,Lyberth
female,Anna,Josefsen
male,Matti,Guðjónsson
female,Konny,Finnbogadóttir
male,Svend,Abelsen
male,Brynjar,Gústavsson
male,Elín,Þorleifsson
male,Andreas,Jakobsen
male,Áslákur,Garðarsson
male,Lars,Lyberth
male,Guðlaugur,Sigurþórsson
male,Nikolaj,Nielsen
male,Jóhannes,Guðmarsson
male,Daniel,Sørensen
male,Bergþór,Hafsteinsson
male,Jan,Nielsen
female,Regine,Frederiksen
male,Knud,Rosing
male,Marinó,Felixson
male,Marius,Petersen
male,Marius,Egede
male,Kristinn,Bjargmundsson
male,Barði,Sigurfinnsson
male,Sigmar,Friðbjarnarson
male,Jørgen,Pedersen
male,Rasmus,Lynge
male,Martin,Enoksen
male,Þórbergur,Benediktsson
male,Búi,Reynisson
male,Andreas,Knudsen
female,Charlotte,Berthelsen
female,Emilie,Sørensen
male,Frederik,Tobiassen
male,Kristian,Kristensen
male,Rúnar,Svanlaugsson
male,Hans,Geisler
male,Miki,Frederiksen
male,Arne,Petrussen
male,Mathias,Broberg
male,Hafþór,Ragnarsson
male,Lars,Mathiassen
male,Hreiðar,Smárason
male,Svend,Rosing
male,Hlynur,Björgvinsson
male,Sveinn,Ásmundsson
male,Guðmar,Unnarsson
male,Martin,Løvstrøm
male,Otto,Lange
male,Andreas,Mathiassen
male,Johan,Kreutzmann
male,Vésteinn,Símonarson
male,Siggeir,Kristinsson
male,Michael,Hansen
male,Pavia,Lynge
male,Arnór,Sveinbjörnsson
male,Minik,Enoksen
male,John,Sørensen
male,Gautur,Arnfinnsson
male,Knud,Andersen
male,Niels,Berthelsen
male,Guðbjartur,Bergsson
male,Valgarður,Þorgilsson
male,Knud,Isaksen
male,Þengill,Þórarinsson
male,Dagur,Flosason
male,Thomas,Frederiksen
male,Hafþór,Smárason
male,Poul,Zeeb
male,Ingþór,Finnbogason
male,Gerth,Kristensen
male,Jens,Johansen
male,Skafti,Víðisson
male,Þröstur,Þórlaugarson
male,Bergþór,Ásbjörnsson
male,Elvar,Guðgeirsson
male,Ilona,Guðmannsson
male,Esjar,Hallsteinsson
male,Mathias,Geisler
male,Jónas,Margeirsson
male,Hannes,Svansson
male,Karl,Andersen
male,Thomas,Lennert
female,Julie,Johansen
male,Thomas,Sørensen
male,Thomas,Kreutzmann
male,Haddur,Jörgensen
male,Ludvig,Løvstrøm
male,Stígur,Ingimarsson
male,Ingþór,Ástvaldsson
male,David,Frederiksen
male,Finnbogi,Kristófersson
male,Steingrímur,Borgþórsson
male,Bernharð,Steingrímsson
female,Signý,Ellertsdóttir
male,Jens,Jørgensen
male,Ástþór,Gústavsson
male,Johannes,Josefsen
male,Rasmus,Rosing
male,Guðmundur,Theodórsson
male,Martin,Lennert
female,Cecilie,Kreutzmann
male,Þórbergur,Eiríksson
male,Guðgeir,Eiríksson
male,Svend,Petrussen
male,Ludvig,Josefsen
male,Miki,Jakobsen
female,Ragnheiður,Hafsteinsdóttir
female,Marta,Hjartardóttir
male,Svend,Knudsen
male,Hugi,Ludvigsson
male,Anders,Kristensen
male,Örvar,Hafsteinsson
male,Runólfur,Jónsson
male,Pavia,Lange
male,Sveinbjörn,Helgason
male,Ludvig,Heilmann
female,Arna,Guðgeirsdóttir
male,Erlingur,Áskelsson
male,Hallgrímur,Lýðsson
male,Búi,Zóphoníasson
male,Hans,Brandt
male,Guðbrandur,Jensson
male,Ástráður,Arnbjarnarson
male,Bergsveinn,Þóreyjarson
male,Andreas,Petersen
male,Poul,Kristensen
male,Kjartan,Ólason
male,Kristian,Nielsen
male,Gunnsteinn,Ingason
male,Daníel,Unnarsson
female,Pálína,Þórólfsdóttir
male,Marina,Guðnason
male,Stefán,Guðlaugsson
male,Magnús,Ólafsson
male,Otto,Lennert
male,Arne,Kreutzmann
male,Peter,Heilmann
female,Hansine,Broberg
male,Kim,Møller
male,Leó,Hárlaugsson
male,Indriði,Arnarson
male,Ásgeir,Valsson
male,Kristian,Josefsen
female,Finnborg,Marinósdóttir
male,Miki,Jensen
male,Emil,Björgólfsson
male,Michael,Rasmussen
male,Sigurjón,Guðlaugsson
male,Poul,Geisler
male,Marius,Mikaelsen
male,Martin,Jørgensen
male,Inunnguaq,Poulsen
female,Sveinbjörg,Agnarsdóttir
male,Nuka,Hansen
male,Anders,Christensen
male,Mikael,Frederiksen
male,Ármann,Ögmundsson
male,Nuka,Kreutzmann
male,Hrafn,Friðjónsson
male,Karl,Abelsen
male,Knud,Pedersen
male,Dagfinnur,Reynisson
male,Karl,Geisler
female,Petrína,Kristbjörnsdóttir
male,Pavia,Broberg
male,Vernharður,Finnbogason
male,Diðrik,Sigurlaugsson
female,Íris,Pálsdóttir
male,Mathias,Lyberth
male,Ole,Isaksen
male,Mikael,Tobiassen
male,Ástráður,Ármannsson
male,Arne,Sandgreen
male,Søren,Zeeb
male,Nuka,Johansen
male,Hallsteinn,Höskuldsson
male,John,Hansen
male,Lars,Olsen
male,Kristian,Olsen
male,Otto,Frederiksen
male,Jonas,Egede
male,John,Lynge
female,Katrine,Nielsen
male,Björn,Gestsson
male,Erik,Rosing
male,Valur,Nikulásson
female,Sóldís,Bjarnadóttir
male,Vilbergur,Steindórsson
male,Knud,Larsen
male,Björn,Erlendsson
male,Kalman,Pálmason
male,Mathias,Brandt
male,Ludvig,Frederiksen
female,Mette,Lyberth
female,Else,Fleischer
male,Dagur,Arnarsson
male,Friðrik,Sigurlaugsson
male,Vilbergur,Sólmundsson
male,Þór,Sigfinnsson
male,Frederik,Kreutzmann
male,Eiríkur,Guðþórsson
male,Axel,Ómarsson
male,Thomas,Christensen
female,Alfa,Sigurvaldadóttir
male,Kim,Zeeb
male,Knud,Petrussen
male,Stígur,Þorkelsson
male,Arne,Rosing
male,Frederik,Olsen
male,Böðvar,Lúðvígsson
male,Úlfar,Guðmundarson
female,Hilda,Birgisdóttir
male,Ilona,Grettisson
female,Emilie,Rosing
male,Frederik,Abelsen
male,Tobias,Davidsen
male,Erik,Lennert
male,Ludvig,Jakobsen
male,Arthur,Guðsteinsson
female,Ösp,Mínervudóttir
male,Gerth,Lennert
male,John,Heilmann
male,Finnbogi,Kristmundsson
male,Kim,Sandgreen
male,Áki,Sigurlaugsson
male,Pavia,Kleist
male,Stefnir,Maríasson
male,Rasmus,Davidsen
male,Jóhannes,Bachmann
male,Nuka,Egede
male,Gunnsteinn,Ívarsson
male,Tobias,Broberg
male,Sturla,Guðmundarson
female,Björg,Valbergsdóttir
male,Dagfinnur,Jónbjörnsson
male,Per,Olsen
male,Alexander,Adolfsson
male,Lars,Petersen
male,Erik,Abelsen
male,Sighvatr,Þórsson
male,Svanbjörn,Þorgrímsson
female,Kirsten,Josefsen
male,Aputsiaq,Christensen
male,Niels,Enoksen
